%YAML 1.1
%TAG !u! tag:unity3d.com,2011:
--- !u!74 &7400000
AnimationClip:
  m_ObjectHideFlags: 0
  m_CorrespondingSourceObject: {fileID: 0}
  m_PrefabInstance: {fileID: 0}
  m_PrefabAsset: {fileID: 0}
  m_Name: Prepare
  serializedVersion: 6
  m_Legacy: 0
  m_Compressed: 0
  m_UseHighQualityCurve: 1
  m_RotationCurves: []
  m_CompressedRotationCurves: []
  m_EulerCurves: []
  m_PositionCurves: []
  m_ScaleCurves: []
  m_FloatCurves: []
  m_PPtrCurves:
  - curve:
    - time: 0
      value: {fileID: -6975720270113093687, guid: f0b64029e65fff7429127057785ea4c3,
        type: 3}
    - time: 0.016666668
      value: {fileID: 7292670612954781166, guid: f0b64029e65fff7429127057785ea4c3,
        type: 3}
    - time: 0.05
      value: {fileID: -730471380146497968, guid: f0b64029e65fff7429127057785ea4c3,
        type: 3}
    - time: 0.06666667
      value: {fileID: -5962871805475418095, guid: f0b64029e65fff7429127057785ea4c3,
        type: 3}
    - time: 0.11666667
      value: {fileID: -295373151976493728, guid: f0b64029e65fff7429127057785ea4c3,
        type: 3}
    - time: 0.18333334
      value: {fileID: 5206780662196471234, guid: f0b64029e65fff7429127057785ea4c3,
        type: 3}
    - time: 0.21666667
      value: {fileID: -5462857625014409490, guid: f0b64029e65fff7429127057785ea4c3,
        type: 3}
    - time: 0.23333333
      value: {fileID: 3592207340731376070, guid: f0b64029e65fff7429127057785ea4c3,
        type: 3}
    - time: 0.26666668
      value: {fileID: 2835475593852592327, guid: f0b64029e65fff7429127057785ea4c3,
        type: 3}
    - time: 0.31666666
      value: {fileID: -3946242475218069974, guid: f0b64029e65fff7429127057785ea4c3,
        type: 3}
    - time: 0.33333334
      value: {fileID: -5798885760781694989, guid: f0b64029e65fff7429127057785ea4c3,
        type: 3}
    - time: 0.35
      value: {fileID: 2617194953192487143, guid: f0b64029e65fff7429127057785ea4c3,
        type: 3}
    - time: 0.38333333
      value: {fileID: 7777957551027351194, guid: f0b64029e65fff7429127057785ea4c3,
        type: 3}
    - time: 0.4
      value: {fileID: -2530863053694268877, guid: f0b64029e65fff7429127057785ea4c3,
        type: 3}
    - time: 0.43333334
      value: {fileID: -5309956809008704750, guid: f0b64029e65fff7429127057785ea4c3,
        type: 3}
    - time: 0.45
      value: {fileID: 8486115757894461920, guid: f0b64029e65fff7429127057785ea4c3,
        type: 3}
    - time: 0.48333332
      value: {fileID: -5936746575762975836, guid: f0b64029e65fff7429127057785ea4c3,
        type: 3}
    - time: 0.51666665
      value: {fileID: 7579741495548166766, guid: f0b64029e65fff7429127057785ea4c3,
        type: 3}
    - time: 0.55
      value: {fileID: -4455748363131451157, guid: f0b64029e65fff7429127057785ea4c3,
        type: 3}
    - time: 0.56666666
      value: {fileID: 3221791952133217693, guid: f0b64029e65fff7429127057785ea4c3,
        type: 3}
    - time: 0.6
      value: {fileID: -4688864364087033934, guid: f0b64029e65fff7429127057785ea4c3,
        type: 3}
    - time: 0.6166667
      value: {fileID: -523897303379010708, guid: f0b64029e65fff7429127057785ea4c3,
        type: 3}
    - time: 0.65
      value: {fileID: -8313349803252952811, guid: f0b64029e65fff7429127057785ea4c3,
        type: 3}
    - time: 0.6666667
      value: {fileID: 966233382591864207, guid: f0b64029e65fff7429127057785ea4c3,
        type: 3}
    - time: 0.68333334
      value: {fileID: 3027711136160427602, guid: f0b64029e65fff7429127057785ea4c3,
        type: 3}
    - time: 0.73333335
      value: {fileID: -623164922306345109, guid: f0b64029e65fff7429127057785ea4c3,
        type: 3}
    - time: 0.76666665
      value: {fileID: -7908243975811198928, guid: f0b64029e65fff7429127057785ea4c3,
        type: 3}
    - time: 0.78333336
      value: {fileID: -706876167442933858, guid: f0b64029e65fff7429127057785ea4c3,
        type: 3}
    - time: 0.81666666
      value: {fileID: 4129236356754737570, guid: f0b64029e65fff7429127057785ea4c3,
        type: 3}
    - time: 0.8833333
      value: {fileID: -3318936690717807008, guid: f0b64029e65fff7429127057785ea4c3,
        type: 3}
    - time: 0.93333334
      value: {fileID: 3036534044381517842, guid: f0b64029e65fff7429127057785ea4c3,
        type: 3}
    - time: 0.95
      value: {fileID: 7373667429782921002, guid: f0b64029e65fff7429127057785ea4c3,
        type: 3}
    - time: 0.98333335
      value: {fileID: 3770126300958579466, guid: f0b64029e65fff7429127057785ea4c3,
        type: 3}
    - time: 1
      value: {fileID: 7505295803093240904, guid: f0b64029e65fff7429127057785ea4c3,
        type: 3}
    attribute: m_Sprite
    path: 
    classID: 212
    script: {fileID: 0}
  m_SampleRate: 60
  m_WrapMode: 0
  m_Bounds:
    m_Center: {x: 0, y: 0, z: 0}
    m_Extent: {x: 0, y: 0, z: 0}
  m_ClipBindingConstant:
    genericBindings:
    - serializedVersion: 2
      path: 0
      attribute: 0
      script: {fileID: 0}
      typeID: 212
      customType: 23
      isPPtrCurve: 1
    pptrCurveMapping:
    - {fileID: -6975720270113093687, guid: f0b64029e65fff7429127057785ea4c3, type: 3}
    - {fileID: 7292670612954781166, guid: f0b64029e65fff7429127057785ea4c3, type: 3}
    - {fileID: -730471380146497968, guid: f0b64029e65fff7429127057785ea4c3, type: 3}
    - {fileID: -5962871805475418095, guid: f0b64029e65fff7429127057785ea4c3, type: 3}
    - {fileID: -295373151976493728, guid: f0b64029e65fff7429127057785ea4c3, type: 3}
    - {fileID: 5206780662196471234, guid: f0b64029e65fff7429127057785ea4c3, type: 3}
    - {fileID: -5462857625014409490, guid: f0b64029e65fff7429127057785ea4c3, type: 3}
    - {fileID: 3592207340731376070, guid: f0b64029e65fff7429127057785ea4c3, type: 3}
    - {fileID: 2835475593852592327, guid: f0b64029e65fff7429127057785ea4c3, type: 3}
    - {fileID: -3946242475218069974, guid: f0b64029e65fff7429127057785ea4c3, type: 3}
    - {fileID: -5798885760781694989, guid: f0b64029e65fff7429127057785ea4c3, type: 3}
    - {fileID: 2617194953192487143, guid: f0b64029e65fff7429127057785ea4c3, type: 3}
    - {fileID: 7777957551027351194, guid: f0b64029e65fff7429127057785ea4c3, type: 3}
    - {fileID: -2530863053694268877, guid: f0b64029e65fff7429127057785ea4c3, type: 3}
    - {fileID: -5309956809008704750, guid: f0b64029e65fff7429127057785ea4c3, type: 3}
    - {fileID: 8486115757894461920, guid: f0b64029e65fff7429127057785ea4c3, type: 3}
    - {fileID: -5936746575762975836, guid: f0b64029e65fff7429127057785ea4c3, type: 3}
    - {fileID: 7579741495548166766, guid: f0b64029e65fff7429127057785ea4c3, type: 3}
    - {fileID: -4455748363131451157, guid: f0b64029e65fff7429127057785ea4c3, type: 3}
    - {fileID: 3221791952133217693, guid: f0b64029e65fff7429127057785ea4c3, type: 3}
    - {fileID: -4688864364087033934, guid: f0b64029e65fff7429127057785ea4c3, type: 3}
    - {fileID: -523897303379010708, guid: f0b64029e65fff7429127057785ea4c3, type: 3}
    - {fileID: -8313349803252952811, guid: f0b64029e65fff7429127057785ea4c3, type: 3}
    - {fileID: 966233382591864207, guid: f0b64029e65fff7429127057785ea4c3, type: 3}
    - {fileID: 3027711136160427602, guid: f0b64029e65fff7429127057785ea4c3, type: 3}
    - {fileID: -623164922306345109, guid: f0b64029e65fff7429127057785ea4c3, type: 3}
    - {fileID: -7908243975811198928, guid: f0b64029e65fff7429127057785ea4c3, type: 3}
    - {fileID: -706876167442933858, guid: f0b64029e65fff7429127057785ea4c3, type: 3}
    - {fileID: 4129236356754737570, guid: f0b64029e65fff7429127057785ea4c3, type: 3}
    - {fileID: -3318936690717807008, guid: f0b64029e65fff7429127057785ea4c3, type: 3}
    - {fileID: 3036534044381517842, guid: f0b64029e65fff7429127057785ea4c3, type: 3}
    - {fileID: 7373667429782921002, guid: f0b64029e65fff7429127057785ea4c3, type: 3}
    - {fileID: 3770126300958579466, guid: f0b64029e65fff7429127057785ea4c3, type: 3}
    - {fileID: 7505295803093240904, guid: f0b64029e65fff7429127057785ea4c3, type: 3}
  m_AnimationClipSettings:
    serializedVersion: 2
    m_AdditiveReferencePoseClip: {fileID: 0}
    m_AdditiveReferencePoseTime: 0
    m_StartTime: 0
    m_StopTime: 1.0166667
    m_OrientationOffsetY: 0
    m_Level: 0
    m_CycleOffset: 0
    m_HasAdditiveReferencePose: 0
    m_LoopTime: 0
    m_LoopBlend: 0
    m_LoopBlendOrientation: 0
    m_LoopBlendPositionY: 0
    m_LoopBlendPositionXZ: 0
    m_KeepOriginalOrientation: 0
    m_KeepOriginalPositionY: 1
    m_KeepOriginalPositionXZ: 0
    m_HeightFromFeet: 0
    m_Mirror: 0
  m_EditorCurves: []
  m_EulerEditorCurves: []
  m_HasGenericRootTransform: 0
  m_HasMotionFloatCurves: 0
  m_Events: []
