%YAML 1.1
%TAG !u! tag:unity3d.com,2011:
--- !u!74 &7400000
AnimationClip:
  m_ObjectHideFlags: 0
  m_CorrespondingSourceObject: {fileID: 0}
  m_PrefabInstance: {fileID: 0}
  m_PrefabAsset: {fileID: 0}
  m_Name: ShotgunLeft
  serializedVersion: 6
  m_Legacy: 0
  m_Compressed: 0
  m_UseHighQualityCurve: 1
  m_RotationCurves: []
  m_CompressedRotationCurves: []
  m_EulerCurves: []
  m_PositionCurves: []
  m_ScaleCurves: []
  m_FloatCurves: []
  m_PPtrCurves:
  - curve:
    - time: 0
      value: {fileID: 3930402789573257083, guid: 4fc63ebed7c030c4caae6e5b837750cd,
        type: 3}
    - time: 0.033333335
      value: {fileID: 4125411896923008481, guid: 4fc63ebed7c030c4caae6e5b837750cd,
        type: 3}
    - time: 0.06666667
      value: {fileID: 7536675857592174367, guid: 4fc63ebed7c030c4caae6e5b837750cd,
        type: 3}
    - time: 0.1
      value: {fileID: 6582058302467041059, guid: 4fc63ebed7c030c4caae6e5b837750cd,
        type: 3}
    - time: 0.13333334
      value: {fileID: -4361997068119587292, guid: 4fc63ebed7c030c4caae6e5b837750cd,
        type: 3}
    - time: 0.16666667
      value: {fileID: 5317431251392242620, guid: 4fc63ebed7c030c4caae6e5b837750cd,
        type: 3}
    - time: 0.2
      value: {fileID: 4162018609982030930, guid: 4fc63ebed7c030c4caae6e5b837750cd,
        type: 3}
    - time: 0.23333333
      value: {fileID: 7284937701737312947, guid: 4fc63ebed7c030c4caae6e5b837750cd,
        type: 3}
    - time: 0.28333333
      value: {fileID: 4055514986897960014, guid: 4fc63ebed7c030c4caae6e5b837750cd,
        type: 3}
    - time: 0.31666666
      value: {fileID: 8803477229119983973, guid: 4fc63ebed7c030c4caae6e5b837750cd,
        type: 3}
    - time: 0.35
      value: {fileID: -9181263501468647168, guid: 4fc63ebed7c030c4caae6e5b837750cd,
        type: 3}
    - time: 0.38333333
      value: {fileID: -460528736437621118, guid: 4fc63ebed7c030c4caae6e5b837750cd,
        type: 3}
    - time: 0.41666666
      value: {fileID: 3270677672660091959, guid: 4fc63ebed7c030c4caae6e5b837750cd,
        type: 3}
    - time: 0.45
      value: {fileID: -120007440513202794, guid: 4fc63ebed7c030c4caae6e5b837750cd,
        type: 3}
    - time: 0.48333332
      value: {fileID: -2626890037415692631, guid: 4fc63ebed7c030c4caae6e5b837750cd,
        type: 3}
    - time: 0.51666665
      value: {fileID: -1619480391822988185, guid: 4fc63ebed7c030c4caae6e5b837750cd,
        type: 3}
    - time: 0.55
      value: {fileID: 8306592448633147297, guid: 4fc63ebed7c030c4caae6e5b837750cd,
        type: 3}
    - time: 0.5833333
      value: {fileID: 1106058398722569850, guid: 4fc63ebed7c030c4caae6e5b837750cd,
        type: 3}
    - time: 0.6166667
      value: {fileID: -6565527982848605168, guid: 4fc63ebed7c030c4caae6e5b837750cd,
        type: 3}
    - time: 0.65
      value: {fileID: 1159437716029556453, guid: 4fc63ebed7c030c4caae6e5b837750cd,
        type: 3}
    - time: 0.68333334
      value: {fileID: 2409409510279399339, guid: 4fc63ebed7c030c4caae6e5b837750cd,
        type: 3}
    - time: 0.71666664
      value: {fileID: 8727073707945116262, guid: 4fc63ebed7c030c4caae6e5b837750cd,
        type: 3}
    - time: 0.76666665
      value: {fileID: -986053239613494289, guid: 4fc63ebed7c030c4caae6e5b837750cd,
        type: 3}
    - time: 0.8
      value: {fileID: 4942587008718099340, guid: 4fc63ebed7c030c4caae6e5b837750cd,
        type: 3}
    - time: 0.8333333
      value: {fileID: -6369586457712211011, guid: 4fc63ebed7c030c4caae6e5b837750cd,
        type: 3}
    - time: 0.8666667
      value: {fileID: -751879453431635457, guid: 4fc63ebed7c030c4caae6e5b837750cd,
        type: 3}
    - time: 0.9
      value: {fileID: 4194846213391566575, guid: 4fc63ebed7c030c4caae6e5b837750cd,
        type: 3}
    - time: 0.93333334
      value: {fileID: 306751813693463277, guid: 4fc63ebed7c030c4caae6e5b837750cd,
        type: 3}
    - time: 0.96666664
      value: {fileID: -896362599460621114, guid: 4fc63ebed7c030c4caae6e5b837750cd,
        type: 3}
    - time: 1
      value: {fileID: -3272987603922891406, guid: 4fc63ebed7c030c4caae6e5b837750cd,
        type: 3}
    attribute: m_Sprite
    path: 
    classID: 212
    script: {fileID: 0}
  m_SampleRate: 60
  m_WrapMode: 0
  m_Bounds:
    m_Center: {x: 0, y: 0, z: 0}
    m_Extent: {x: 0, y: 0, z: 0}
  m_ClipBindingConstant:
    genericBindings:
    - serializedVersion: 2
      path: 0
      attribute: 0
      script: {fileID: 0}
      typeID: 212
      customType: 23
      isPPtrCurve: 1
    pptrCurveMapping:
    - {fileID: 3930402789573257083, guid: 4fc63ebed7c030c4caae6e5b837750cd, type: 3}
    - {fileID: 4125411896923008481, guid: 4fc63ebed7c030c4caae6e5b837750cd, type: 3}
    - {fileID: 7536675857592174367, guid: 4fc63ebed7c030c4caae6e5b837750cd, type: 3}
    - {fileID: 6582058302467041059, guid: 4fc63ebed7c030c4caae6e5b837750cd, type: 3}
    - {fileID: -4361997068119587292, guid: 4fc63ebed7c030c4caae6e5b837750cd, type: 3}
    - {fileID: 5317431251392242620, guid: 4fc63ebed7c030c4caae6e5b837750cd, type: 3}
    - {fileID: 4162018609982030930, guid: 4fc63ebed7c030c4caae6e5b837750cd, type: 3}
    - {fileID: 7284937701737312947, guid: 4fc63ebed7c030c4caae6e5b837750cd, type: 3}
    - {fileID: 4055514986897960014, guid: 4fc63ebed7c030c4caae6e5b837750cd, type: 3}
    - {fileID: 8803477229119983973, guid: 4fc63ebed7c030c4caae6e5b837750cd, type: 3}
    - {fileID: -9181263501468647168, guid: 4fc63ebed7c030c4caae6e5b837750cd, type: 3}
    - {fileID: -460528736437621118, guid: 4fc63ebed7c030c4caae6e5b837750cd, type: 3}
    - {fileID: 3270677672660091959, guid: 4fc63ebed7c030c4caae6e5b837750cd, type: 3}
    - {fileID: -120007440513202794, guid: 4fc63ebed7c030c4caae6e5b837750cd, type: 3}
    - {fileID: -2626890037415692631, guid: 4fc63ebed7c030c4caae6e5b837750cd, type: 3}
    - {fileID: -1619480391822988185, guid: 4fc63ebed7c030c4caae6e5b837750cd, type: 3}
    - {fileID: 8306592448633147297, guid: 4fc63ebed7c030c4caae6e5b837750cd, type: 3}
    - {fileID: 1106058398722569850, guid: 4fc63ebed7c030c4caae6e5b837750cd, type: 3}
    - {fileID: -6565527982848605168, guid: 4fc63ebed7c030c4caae6e5b837750cd, type: 3}
    - {fileID: 1159437716029556453, guid: 4fc63ebed7c030c4caae6e5b837750cd, type: 3}
    - {fileID: 2409409510279399339, guid: 4fc63ebed7c030c4caae6e5b837750cd, type: 3}
    - {fileID: 8727073707945116262, guid: 4fc63ebed7c030c4caae6e5b837750cd, type: 3}
    - {fileID: -986053239613494289, guid: 4fc63ebed7c030c4caae6e5b837750cd, type: 3}
    - {fileID: 4942587008718099340, guid: 4fc63ebed7c030c4caae6e5b837750cd, type: 3}
    - {fileID: -6369586457712211011, guid: 4fc63ebed7c030c4caae6e5b837750cd, type: 3}
    - {fileID: -751879453431635457, guid: 4fc63ebed7c030c4caae6e5b837750cd, type: 3}
    - {fileID: 4194846213391566575, guid: 4fc63ebed7c030c4caae6e5b837750cd, type: 3}
    - {fileID: 306751813693463277, guid: 4fc63ebed7c030c4caae6e5b837750cd, type: 3}
    - {fileID: -896362599460621114, guid: 4fc63ebed7c030c4caae6e5b837750cd, type: 3}
    - {fileID: -3272987603922891406, guid: 4fc63ebed7c030c4caae6e5b837750cd, type: 3}
  m_AnimationClipSettings:
    serializedVersion: 2
    m_AdditiveReferencePoseClip: {fileID: 0}
    m_AdditiveReferencePoseTime: 0
    m_StartTime: 0
    m_StopTime: 1.0166667
    m_OrientationOffsetY: 0
    m_Level: 0
    m_CycleOffset: 0
    m_HasAdditiveReferencePose: 0
    m_LoopTime: 1
    m_LoopBlend: 0
    m_LoopBlendOrientation: 0
    m_LoopBlendPositionY: 0
    m_LoopBlendPositionXZ: 0
    m_KeepOriginalOrientation: 0
    m_KeepOriginalPositionY: 1
    m_KeepOriginalPositionXZ: 0
    m_HeightFromFeet: 0
    m_Mirror: 0
  m_EditorCurves: []
  m_EulerEditorCurves: []
  m_HasGenericRootTransform: 0
  m_HasMotionFloatCurves: 0
  m_Events: []
