%YAML 1.1
%TAG !u! tag:unity3d.com,2011:
--- !u!114 &11400000
MonoBehaviour:
  m_ObjectHideFlags: 0
  m_CorrespondingSourceObject: {fileID: 0}
  m_PrefabInstance: {fileID: 0}
  m_PrefabAsset: {fileID: 0}
  m_GameObject: {fileID: 0}
  m_Enabled: 1
  m_EditorHideFlags: 0
  m_Script: {fileID: 11500000, guid: aff3d1291ff94189afd57033a1223103, type: 3}
  m_Name: Persistent
  m_EditorClassIdentifier: 
  playerData: {fileID: 11400000, guid: ee370804ac963c2418c9404863f500a8, type: 2}
  sessionData: {fileID: 11400000, guid: d6c021c1576a2a942b7d0d9239eac7c4, type: 2}
  levelData: {fileID: 11400000, guid: eda03a680f58ad0478768684f8caab05, type: 2}
  currentSceneIndex: 1
