﻿{
	"lines":
	[
		{
			"key":"MERZOST",
			"line": ["Мерзость...", "Крысиное пиршество преградило путь."],
			"duration": [2, 4],
			"delay": 0
		},
		{
			"key":"Nora",
			"line":["Нора...",
				"Это последнее место, где хотелось бы оказаться.",
				"Но вонь, сырость и темнота не самое страшное, что таилось в глубине,",
				"что-то двигалось во мраке",
				"и оно становилось ближе..."
			],
			"duration": [1.5,3,4,2,2.7],
			"delay": 2
		},
		{
			"key":"Im net konca",
			"line":["Казалось, им нет конца."],
			"duration": [-1],
			"delay": 0
		},
		{
			"key":"Svet zna4it vixod",
			"line":["Кажется, впереди свет.",
				 "Свет - значит выход?.."],
			"duration": [2,2],
			"delay": 0
		},
		{
			"key":"Drygoi sposob",
			"line":["Пули не причиняют ей никого вреда.",
				 "Должен быть другой способ."],
			"duration": [2.8,2],
			"delay": 0.5
		},
		{
			"key":"Pora Vibiratsya",
			"line":["Кажется с нее хватит.", 
				"Пора выбираться отсюда."],
			"duration": [2,2],
			"delay": 2
		},
		{
			"key":"Boss",
			"line":["Перед героем предстала ужасная картина:",
				"На куче ваты и лоскутов, покрытых остывшей слюной, покоилась крысиная туша,", 
				"из пасти которой, через острые гнилые зубы доносилось зловонное дыхание,",
				"а из под брони топорщился серый жесткий волос, подходящий больше щётке для одежды,",
				"нежели живому существу..."
				],
			"duration": [2.2,5,5,5,3],
			"delay": 1.5
		},
		{
			"key":"Siewte eto",
			"line":["Съешьте это!"],
			"duration": [-1],
			"delay": 0
		},
		{
			"key":"Vrem9 desserta",
			"line":["Время дессерта!"],
			"duration": [-1],
			"delay": 0
		},
		{
			"key":"1-1",
			"line":["Первый шаг всегда самый тяжелый.","Нам предстоит погрузиться в самую неприятную и враждебную часть дома.",
				 "Крысиная нора.", 
				 "Здесь в темноте рыскают отвратительные по своей сути и мерзкие на вид создания, ",
				 "которые только и ждут чтобы отцапать себе лоскуток.", 
				 "Перспектива неприятная, но другого пути никогда не было."],
			"duration": [3, 4.5, 3, 5.5, 5.5, 4.5],
			"delay": 0.1
		},
		{
			"key":"1-2a",
			"line":["И даже с потолка?!"],
			"duration": [-1],
			"delay": 0.2
		},
		{
			"key":"1-2b",
			"line":["Осторожно, они появляются отовсюду!"],
			"duration": [-1],
			"delay": 0.2
		},
		{
			"key":"1-2c",
			"line":["Надоедливые грызуны!"],
			"duration": [-1],
			"delay": 0.2
		},
		{
			"key":"1-3a",
			"line":["У меня дурное предчувствие..."],
			"duration": [-1],
			"delay": 0.2
		},
		{
			"key":"1-3b",
			"line":["Может.. не стоит?.."],
			"duration": [-1],
			"delay": 0.2
		},
		{
			"key":"1-4a",
			"line":["Это должно сработать."],
			"duration": [-1],
			"delay": 0.2
		},
		{
			"key":"1-4b",
			"line":["Отличное решение!"],
			"duration": [-1],
			"delay": 0.2
		},
		{
			"key":"1-5a",
			"line":["Еще немного!"],
			"duration": [-1],
			"delay": 0.2
		},
		{
			"key":"2-1a",
			"line":["В темноте было сложно увидеть что-то,",
					"тем более механизм швейной машины.",
					"Но было ясно одно: нужно карабкаться вверх",
					"и как можно скорее."
			],
			"duration": [3.6, 3.1, 3, 3],
			"delay": 0.2
		},
		{
			"key":"2-1b",
			"line":["Мастерская.", 
			"Когда-то это место было полно жизни, но теперь здесь царит тьма.",
			"Остатки изобретений обросли гнездами изуродованных существ.",
			"Дух их злобы окутывал все обозримое пространство",
			"и через этот ад предстояло пройти нашему герою."
			],
			"duration": [2.6, 5.4, 5.5, 3.8, 5],
			"delay": 0.1
		},
		{
			"key":"2-2",
			"line":["Здесь явно стоит быть осторожнее..."],
			"duration": [-1],
			"delay": 0.2
		},
		{
			"key":"2-3a",
			"line":["Нет! Только не это!"],
			"duration": [-1],
			"delay": 0.2
		},
		{
			"key":"2-3b",
			"line":["Медлить нельзя, нужно искать обходной путь!"],
			"duration": [-1],
			"delay": 0.2
		},
		{
			"key":"2-4",
			"line":["Нет, сейчас со всем не до вас!"],
			"duration": [-1],
			"delay": 0.2
		},
		{
			"key":"2-5",
			"line":["Путешествие оказалось труднее, чем можно было себе представить.",
					"Всё пошло не по плану.", 
					"Теперь впереди еще более опасные приключения.",
					"И кто знает, где остановится этот поезд.",
					"Ясно одно: это только начало нового пути и новый этап противостояния."
			],
			"duration": [4, 2, 2.7, 2.7, 5],
			"delay": 0.2
		},
		{
			"key":"3-1a",
			"line":["Перегрелось."],
			"duration": [-1],
			"delay": 0.2
		},
		{
			"key":"3-1b",
			"line":["Нужно подождать."],
			"duration": [-1],
			"delay": 0.2
		},
		{
			"key":"3-1c",
			"line":["Как не вовремя!"],
			"duration": [-1],
			"delay": 0.2
		},
		{
			"key":"3-1d",
			"line":["Не расплавь пушку!"],
			"duration": [-1],
			"delay": 0.2
		},
		{
			"key":"3-2a",
			"line":["Кажется, мы справляемся."],
			"duration": [-1],
			"delay": 0.2
		},
		{
			"key":"3-2b",
			"line":["Проще простого!"],
			"duration": [-1],
			"delay": 0.2
		},
		{
			"key":"3-2c",
			"line":["Откуда вас столько?!"],
			"duration": [-1],
			"delay": 0.2
		},
		{
			"key":"3-2d",
			"line":["Сбилась со счета."],
			"duration": [-1],
			"delay": 0.2
		},
		{
			"key":"3-2e",
			"line":["Надеюсь это последний..."],
			"duration": [-1],
			"delay": 0.2
		},
		{
			"key":"3-2f",
			"line":["Нас не остановить."],
			"duration": [-1],
			"delay": 0.2
		},
		{
			"key":"3-2g",
			"line":["Идем по головам."],
			"duration": [-1],
			"delay": 0.2
		},
		{
			"key":"3-2h",
			"line":["Возвращайся обратно."],
			"duration": [-1],
			"delay": 0.2
		},
		{
			"key":"3-2i",
			"line":["Оставайся там."],
			"duration": [-1],
			"delay": 0.2
		},
		{
			"key":"3-2j",
			"line":["И не вставай!"],
			"duration": [-1],
			"delay": 0.2
		},
		{
			"key":"3-3a",
			"line":["Нам нужно беречь свет."],
			"duration": [-1],
			"delay": 0.2
		},
		{
			"key":"3-3b",
			"line":["Осторожнее с фонарем."],
			"duration": [-1],
			"delay": 0.2
		},
		{
			"key":"3-3c",
			"line":["Не отдавай им свет."],
			"duration": [-1],
			"delay": 0.2
		},
		{
			"key":"3-3d",
			"line":["Верните!"],
			"duration": [-1],
			"delay": 0.2
		},
		{
			"key":"3-3e",
			"line":["Вам его не забрать!"],
			"duration": [-1],
			"delay": 0.2
		},
		{
			"key":"3-3f",
			"line":["Он меркнет..."],
			"duration": [-1],
			"delay": 0.2
		},
		{
			"key":"3-3g",
			"line":["Не позволяй этого!"],
			"duration": [-1],
			"delay": 0.2
		},
		{
			"key":"3-3h",
			"line":["Не теряй."],
			"duration": [-1],
			"delay": 0.2
		},
		{
			"key":"3-3i",
			"line":["Важно сохранять свет!"],
			"duration": [-1],
			"delay": 0.2
		},
		{
			"key":"3-3j",
			"line":["Будь аккуратнее!"],
			"duration": [-1],
			"delay": 0.2
		},
		{
			"key":"3-4a",
			"line":["Уф... Мы справились!"],
			"duration": [-1],
			"delay": 0.2
		},
		{
			"key":"3-4b",
			"line":["Было нелегко."],
			"duration": [-1],
			"delay": 0.2
		},
		{
			"key":"3-4c",
			"line":["Мы были на волоске!"],
			"duration": [-1],
			"delay": 0.2
		},
		{
			"key":"3-4d",
			"line":["Не всё так плохо!"],
			"duration": [-1],
			"delay": 0.2
		},
		{
			"key":"3-4e",
			"line":["Мы вернули его!"],
			"duration": [-1],
			"delay": 0.2
		},
		{
			"key":"3-4f",
			"line":["Так-то лучше."],
			"duration": [-1],
			"delay": 0.2
		},
		{
			"key":"3-4g",
			"line":["Другое дело!"],
			"duration": [-1],
			"delay": 0.2
		},
		{
			"key":"3-4h",
			"line":["Приятное чувство!"],
			"duration": [-1],
			"delay": 0.2
		},
		{
			"key":"3-4i",
			"line":["Всегда бы так!"],
			"duration": [-1],
			"delay": 0.2
		},
		{
			"key":"3-4j",
			"line":["Готовы идти дальше."],
			"duration": [-1],
			"delay": 0.2
		},
		{
			"key":"3-5a",
			"line":["Не сдавайся."],
			"duration": [-1],
			"delay": 0.2
		},
		{
			"key":"3-5b",
			"line":["Продолжай идти."],
			"duration": [-1],
			"delay": 0.2
		},
		{
			"key":"3-5c",
			"line":["Нужно вернуть свет."],
			"duration": [-1],
			"delay": 0.2
		},
		{
			"key":"3-5d",
			"line":["Тьма сгущается."],
			"duration": [-1],
			"delay": 0.2
		},
		{
			"key":"3-5e",
			"line":["Он угасает..."],
			"duration": [-1],
			"delay": 0.2
		},
		{
			"key":"3-5f",
			"line":["Мало света..."],
			"duration": [-1],
			"delay": 0.2
		},
		{
			"key":"3-5g",
			"line":["Держи дистанцию."],
			"duration": [-1],
			"delay": 0.2
		},
		{
			"key":"3-5h",
			"line":["Не попадайся!"],
			"duration": [-1],
			"delay": 0.2
		},
		{
			"key":"3-5i",
			"line":["Отходи!"],
			"duration": [-1],
			"delay": 0.2
		},
		{
			"key":"3-5j",
			"line":["Становится жарко."],
			"duration": [-1],
			"delay": 0.2
		},
		{
			"key":"3-6a",
			"line":["Мы справимся!"],
			"duration": [-1],
			"delay": 0.2
		},
		{
			"key":"3-6b",
			"line":["Мы обязательно должны попробовать ещё раз!"],
			"duration": [-1],
			"delay": 0.2
		},
		{
			"key":"3-6c",
			"line":["Не останавливайся!"],
			"duration": [-1],
			"delay": 0.2
		},
		{
			"key":"3-6d",
			"line":["Мы вернемся."],
			"duration": [-1],
			"delay": 0.2
		},
		{
			"key":"3-6e",
			"line":["Это нас не остановит."],
			"duration": [-1],
			"delay": 0.2
		},
		{
			"key":"3-6f",
			"line":["Повторим?"],
			"duration": [-1],
			"delay": 0.2
		},
		{
			"key":"3-6g",
			"line":["Нельзя опускать руки."],
			"duration": [-1],
			"delay": 0.2
		},
		{
			"key":"3-6h",
			"line":["Только ты способен это закончить."],
			"duration": [-1],
			"delay": 0.2
		},
		{
			"key":"3-7a",
			"line":["На чем мы остановились?"],
			"duration": [-1],
			"delay": 0.2
		},
		{
			"key":"3-7b",
			"line":["Самое время продолжить."],
			"duration": [-1],
			"delay": 0.2
		},
		{
			"key":"3-7c",
			"line":["Время начинать."],
			"duration": [-1],
			"delay": 0.2
		},
		{
			"key":"3-7d",
			"line":["Пора возвращаться."],
			"duration": [-1],
			"delay": 0.2
		},
		{
			"key":"3-8a",
			"line":["На этом все?"],
			"duration": [-1],
			"delay": 0.2
		},
		{
			"key":"3-8b",
			"line":["Ну, еще 5 минут..."],
			"duration": [-1],
			"delay": 0.2
		},
		{
			"key":"3-8c",
			"line":["Ты вернешься?"],
			"duration": [-1],
			"delay": 0.2
		},
		{
			"key":"3-8d",
			"line":["Я хочу еще."],
			"duration": [-1],
			"delay": 0.2
		},
		{
			"key":"3-8e",
			"line":["Обязательно возвращайся."],
			"duration": [-1],
			"delay": 0.2
		},
		{
			"key":"3-8f",
			"line":["Я буду ждать."],
			"duration": [-1],
			"delay": 0.2
		},
		{
			"key":"3-9a",
			"line":["Слишком просто."],
			"duration": [-1],
			"delay": 0.2
		},
		{
			"key":"3-9b",
			"line":["Меня так просто не сломить."],
			"duration": [-1],
			"delay": 0.2
		},
		{
			"key":"3-9c",
			"line":["Все нитки на месте!"],
			"duration": [-1],
			"delay": 0.2
		},
		{
			"key":"3-9d",
			"line":["И это все?"],
			"duration": [-1],
			"delay": 0.2
		},
		{
			"key":"3-9e",
			"line":["Идеально."],
			"duration": [-1],
			"delay": 0.2
		},
		{
			"key":"3-9f",
			"line":["Без единой заплатки."],
			"duration": [-1],
			"delay": 0.2
		},
		{
			"key":"3-10a",
			"line":["Кто на этот раз?"],
			"duration": [-1],
			"delay": 0.2
		},
		{
			"key":"3-10b",
			"line":["Они уже здесь."],
			"duration": [-1],
			"delay": 0.2
		},
		{
			"key":"3-10c",
			"line":["Уже поджидают."],
			"duration": [-1],
			"delay": 0.2
		},
		{
			"key":"3-10d",
			"line":["Задай им."],
			"duration": [-1],
			"delay": 0.2
		},
		{
			"key":"3-10e",
			"line":["Зараза!"],
			"duration": [-1],
			"delay": 0.2
		},
		{
			"key":"3-10f",
			"line":["Вот вы где!"],
			"duration": [-1],
			"delay": 0.2
		},
		{
			"key":"3-10g",
			"line":["Сколько же вас?!"],
			"duration": [-1],
			"delay": 0.2
		},
		{
			"key":"3-11a",
			"line":["Лучший день в моей жизни..."],
			"duration": [-1],
			"delay": 0.2
		},
		{
			"key":"3-11b",
			"line":["Мы так много не успели..."],
			"duration": [-1],
			"delay": 0.2
		},
		{
			"key":"3-11z",
			"line":["Он был для меня опорой..."],
			"duration": [-1],
			"delay": 0.2
		},
		{
			"key":"3-11c",
			"line":["Жаль, я его больше не увижу..."],
			"duration": [-1],
			"delay": 0.2
		},
		{
			"key":"3-11d",
			"line":["Как жаль, что его больше нет..."],
			"duration": [-1],
			"delay": 0.2
		},
		{
			"key":"3-11e",
			"line":["Ему бы понравилась история..."],
			"duration": [-1],
			"delay": 0.2
		},
		{
			"key":"3-11f",
			"line":["Он был настоящим мастером..."],
			"duration": [-1],
			"delay": 0.2
		},
		{
			"key":"3-11g",
			"line":["С ним здесь было намного уютнее..."],
			"duration": [-1],
			"delay": 0.2
		},
		{
			"key":"3-11h",
			"line":["Без него это место потеряло жизнь..."],
			"duration": [-1],
			"delay": 0.2
		}
	]
}