%YAML 1.1
%TAG !u! tag:unity3d.com,2011:
--- !u!74 &7400000
AnimationClip:
  m_ObjectHideFlags: 0
  m_CorrespondingSourceObject: {fileID: 0}
  m_PrefabInstance: {fileID: 0}
  m_PrefabAsset: {fileID: 0}
  m_Name: DeathLeg
  serializedVersion: 6
  m_Legacy: 0
  m_Compressed: 0
  m_UseHighQualityCurve: 1
  m_RotationCurves: []
  m_CompressedRotationCurves: []
  m_EulerCurves: []
  m_PositionCurves: []
  m_ScaleCurves: []
  m_FloatCurves: []
  m_PPtrCurves:
  - curve:
    - time: 0
      value: {fileID: 7448389897870186485, guid: 554ea74a7b046064c876153b01c36621,
        type: 3}
    - time: 0.033333335
      value: {fileID: 248021565802794300, guid: 554ea74a7b046064c876153b01c36621,
        type: 3}
    - time: 0.083333336
      value: {fileID: -8883093703531879578, guid: 554ea74a7b046064c876153b01c36621,
        type: 3}
    - time: 0.13333334
      value: {fileID: -797563249776717984, guid: 554ea74a7b046064c876153b01c36621,
        type: 3}
    - time: 0.16666667
      value: {fileID: -6740528098302871346, guid: 8895133e836563b4c8861c3d12b2c7e0,
        type: 3}
    - time: 0.21666667
      value: {fileID: 4089684217555501975, guid: 8895133e836563b4c8861c3d12b2c7e0,
        type: 3}
    - time: 0.25
      value: {fileID: 6407670121732460166, guid: 8895133e836563b4c8861c3d12b2c7e0,
        type: 3}
    - time: 0.3
      value: {fileID: 2154949350634698903, guid: 8895133e836563b4c8861c3d12b2c7e0,
        type: 3}
    - time: 0.33333334
      value: {fileID: -1331088659367840008, guid: bc9644f63c09da044938837044dac8c6,
        type: 3}
    - time: 0.36666667
      value: {fileID: -8047066444994690781, guid: bc9644f63c09da044938837044dac8c6,
        type: 3}
    - time: 0.41666666
      value: {fileID: 1899479204430689185, guid: bc9644f63c09da044938837044dac8c6,
        type: 3}
    - time: 0.46666667
      value: {fileID: -2049952209776373781, guid: bc9644f63c09da044938837044dac8c6,
        type: 3}
    attribute: m_Sprite
    path: 
    classID: 212
    script: {fileID: 0}
  m_SampleRate: 60
  m_WrapMode: 0
  m_Bounds:
    m_Center: {x: 0, y: 0, z: 0}
    m_Extent: {x: 0, y: 0, z: 0}
  m_ClipBindingConstant:
    genericBindings:
    - serializedVersion: 2
      path: 0
      attribute: 0
      script: {fileID: 0}
      typeID: 212
      customType: 23
      isPPtrCurve: 1
    pptrCurveMapping:
    - {fileID: 7448389897870186485, guid: 554ea74a7b046064c876153b01c36621, type: 3}
    - {fileID: 248021565802794300, guid: 554ea74a7b046064c876153b01c36621, type: 3}
    - {fileID: -8883093703531879578, guid: 554ea74a7b046064c876153b01c36621, type: 3}
    - {fileID: -797563249776717984, guid: 554ea74a7b046064c876153b01c36621, type: 3}
    - {fileID: -6740528098302871346, guid: 8895133e836563b4c8861c3d12b2c7e0, type: 3}
    - {fileID: 4089684217555501975, guid: 8895133e836563b4c8861c3d12b2c7e0, type: 3}
    - {fileID: 6407670121732460166, guid: 8895133e836563b4c8861c3d12b2c7e0, type: 3}
    - {fileID: 2154949350634698903, guid: 8895133e836563b4c8861c3d12b2c7e0, type: 3}
    - {fileID: -1331088659367840008, guid: bc9644f63c09da044938837044dac8c6, type: 3}
    - {fileID: -8047066444994690781, guid: bc9644f63c09da044938837044dac8c6, type: 3}
    - {fileID: 1899479204430689185, guid: bc9644f63c09da044938837044dac8c6, type: 3}
    - {fileID: -2049952209776373781, guid: bc9644f63c09da044938837044dac8c6, type: 3}
  m_AnimationClipSettings:
    serializedVersion: 2
    m_AdditiveReferencePoseClip: {fileID: 0}
    m_AdditiveReferencePoseTime: 0
    m_StartTime: 0
    m_StopTime: 0.48333335
    m_OrientationOffsetY: 0
    m_Level: 0
    m_CycleOffset: 0
    m_HasAdditiveReferencePose: 0
    m_LoopTime: 0
    m_LoopBlend: 0
    m_LoopBlendOrientation: 0
    m_LoopBlendPositionY: 0
    m_LoopBlendPositionXZ: 0
    m_KeepOriginalOrientation: 0
    m_KeepOriginalPositionY: 1
    m_KeepOriginalPositionXZ: 0
    m_HeightFromFeet: 0
    m_Mirror: 0
  m_EditorCurves: []
  m_EulerEditorCurves: []
  m_HasGenericRootTransform: 0
  m_HasMotionFloatCurves: 0
  m_Events: []
