%YAML 1.1
%TAG !u! tag:unity3d.com,2011:
--- !u!114 &8328614852811313935
MonoBehaviour:
  m_ObjectHideFlags: 0
  m_CorrespondingSourceObject: {fileID: 0}
  m_PrefabInstance: {fileID: 0}
  m_PrefabAsset: {fileID: 0}
  m_GameObject: {fileID: 697202666895794031}
  m_Enabled: 1
  m_EditorHideFlags: 0
  m_Script: {fileID: 11500000, guid: 662bc2bf21df46cea96308210ec5f1a3, type: 3}
  m_Name: 
  m_EditorClassIdentifier: 
  instanceCount: 50
  damage: 25
  timeToDestroy: 0.22
  destroyLayer:
    serializedVersion: 2
    m_Bits: 9113600
--- !u!1 &776180788193547891
GameObject:
  m_ObjectHideFlags: 0
  m_CorrespondingSourceObject: {fileID: 0}
  m_PrefabInstance: {fileID: 0}
  m_PrefabAsset: {fileID: 0}
  serializedVersion: 6
  m_Component:
  - component: {fileID: 8229451214788853024}
  - component: {fileID: 4984687972815770342}
  - component: {fileID: 8622277250993492109}
  m_Layer: 9
  m_Name: Sprite
  m_TagString: Untagged
  m_Icon: {fileID: 0}
  m_NavMeshLayer: 0
  m_StaticEditorFlags: 0
  m_IsActive: 1
--- !u!4 &8229451214788853024
Transform:
  m_ObjectHideFlags: 0
  m_CorrespondingSourceObject: {fileID: 0}
  m_PrefabInstance: {fileID: 0}
  m_PrefabAsset: {fileID: 0}
  m_GameObject: {fileID: 776180788193547891}
  m_LocalRotation: {x: 0, y: 0, z: 0, w: 1}
  m_LocalPosition: {x: 0, y: 0, z: 0}
  m_LocalScale: {x: 1, y: 1, z: 1}
  m_Children: []
  m_Father: {fileID: 3596110539219924468}
  m_RootOrder: 0
  m_LocalEulerAnglesHint: {x: 0, y: 0, z: 0}
--- !u!212 &4984687972815770342
SpriteRenderer:
  m_ObjectHideFlags: 0
  m_CorrespondingSourceObject: {fileID: 0}
  m_PrefabInstance: {fileID: 0}
  m_PrefabAsset: {fileID: 0}
  m_GameObject: {fileID: 776180788193547891}
  m_Enabled: 1
  m_CastShadows: 0
  m_ReceiveShadows: 0
  m_DynamicOccludee: 1
  m_MotionVectors: 1
  m_LightProbeUsage: 1
  m_ReflectionProbeUsage: 1
  m_RayTracingMode: 0
  m_RenderingLayerMask: 1
  m_RendererPriority: 0
  m_Materials:
  - {fileID: 2100000, guid: a97c105638bdf8b4a8650670310a4cd3, type: 2}
  m_StaticBatchInfo:
    firstSubMesh: 0
    subMeshCount: 0
  m_StaticBatchRoot: {fileID: 0}
  m_ProbeAnchor: {fileID: 0}
  m_LightProbeVolumeOverride: {fileID: 0}
  m_ScaleInLightmap: 1
  m_ReceiveGI: 1
  m_PreserveUVs: 0
  m_IgnoreNormalsForChartDetection: 0
  m_ImportantGI: 0
  m_StitchLightmapSeams: 1
  m_SelectedEditorRenderState: 0
  m_MinimumChartSize: 4
  m_AutoUVMaxDistance: 0.5
  m_AutoUVMaxAngle: 89
  m_LightmapParameters: {fileID: 0}
  m_SortingLayerID: -531945771
  m_SortingLayer: 2
  m_SortingOrder: 0
  m_Sprite: {fileID: 21300000, guid: 9bb4a9943d349164aaf3c352a2777aa0, type: 3}
  m_Color: {r: 1, g: 1, b: 1, a: 1}
  m_FlipX: 0
  m_FlipY: 0
  m_DrawMode: 0
  m_Size: {x: 2.6, y: 2.14}
  m_AdaptiveModeThreshold: 0.5
  m_SpriteTileMode: 0
  m_WasSpriteAssigned: 1
  m_MaskInteraction: 0
  m_SpriteSortPoint: 0
--- !u!114 &8622277250993492109
MonoBehaviour:
  m_ObjectHideFlags: 0
  m_CorrespondingSourceObject: {fileID: 0}
  m_PrefabInstance: {fileID: 0}
  m_PrefabAsset: {fileID: 0}
  m_GameObject: {fileID: 776180788193547891}
  m_Enabled: 1
  m_EditorHideFlags: 0
  m_Script: {fileID: 11500000, guid: 073797afb82c5a1438f328866b10b3f0, type: 3}
  m_Name: 
  m_EditorClassIdentifier: 
  m_LightType: 2
  m_BlendStyleIndex: 0
  m_FalloffIntensity: 0.5
  m_Color: {r: 1, g: 1, b: 1, a: 1}
  m_Intensity: 3
  m_LightVolumeOpacity: 0
  m_ApplyToSortingLayers: 00000000d5264be0019e894fb1262e453d56701b
  m_LightCookieSprite: {fileID: 21300000, guid: 9bb4a9943d349164aaf3c352a2777aa0,
    type: 3}
  m_UseNormalMap: 0
  m_LightOrder: 0
  m_AlphaBlendOnOverlap: 0
  m_ShadowIntensity: 0
  m_ShadowVolumeIntensity: 0
  m_PointLightInnerAngle: 360
  m_PointLightOuterAngle: 360
  m_PointLightInnerRadius: 0
  m_PointLightOuterRadius: 1
  m_PointLightDistance: 3
  m_PointLightQuality: 1
  m_ShapeLightParametricSides: 5
  m_ShapeLightParametricAngleOffset: 0
  m_ShapeLightParametricRadius: 1
  m_ShapeLightFalloffSize: 0.5
  m_ShapeLightFalloffOffset: {x: 0, y: 0}
  m_ShapePath:
  - {x: -0.5, y: -0.5, z: 0}
  - {x: 0.5, y: -0.5, z: 0}
  - {x: 0.5, y: 0.5, z: 0}
  - {x: -0.5, y: 0.5, z: 0}
--- !u!1001 &1608714153360560613
PrefabInstance:
  m_ObjectHideFlags: 0
  serializedVersion: 2
  m_Modification:
    m_TransformParent: {fileID: 0}
    m_Modifications:
    - target: {fileID: 2305766998911766154, guid: 8325c8bab32767a479ccb1c41c1da3f3,
        type: 3}
      propertyPath: m_Name
      value: BulletShotgun
      objectReference: {fileID: 0}
    - target: {fileID: 2861122240014902289, guid: 8325c8bab32767a479ccb1c41c1da3f3,
        type: 3}
      propertyPath: m_LocalPosition.x
      value: -0.41331205
      objectReference: {fileID: 0}
    - target: {fileID: 2861122240014902289, guid: 8325c8bab32767a479ccb1c41c1da3f3,
        type: 3}
      propertyPath: m_LocalPosition.y
      value: -2.790981
      objectReference: {fileID: 0}
    - target: {fileID: 2861122240014902289, guid: 8325c8bab32767a479ccb1c41c1da3f3,
        type: 3}
      propertyPath: m_LocalPosition.z
      value: -2.3192809
      objectReference: {fileID: 0}
    - target: {fileID: 2861122240014902289, guid: 8325c8bab32767a479ccb1c41c1da3f3,
        type: 3}
      propertyPath: m_LocalRotation.x
      value: 0
      objectReference: {fileID: 0}
    - target: {fileID: 2861122240014902289, guid: 8325c8bab32767a479ccb1c41c1da3f3,
        type: 3}
      propertyPath: m_LocalRotation.y
      value: 0
      objectReference: {fileID: 0}
    - target: {fileID: 2861122240014902289, guid: 8325c8bab32767a479ccb1c41c1da3f3,
        type: 3}
      propertyPath: m_LocalRotation.z
      value: 0
      objectReference: {fileID: 0}
    - target: {fileID: 2861122240014902289, guid: 8325c8bab32767a479ccb1c41c1da3f3,
        type: 3}
      propertyPath: m_LocalRotation.w
      value: 1
      objectReference: {fileID: 0}
    - target: {fileID: 2861122240014902289, guid: 8325c8bab32767a479ccb1c41c1da3f3,
        type: 3}
      propertyPath: m_RootOrder
      value: 0
      objectReference: {fileID: 0}
    - target: {fileID: 2861122240014902289, guid: 8325c8bab32767a479ccb1c41c1da3f3,
        type: 3}
      propertyPath: m_LocalEulerAnglesHint.x
      value: 0
      objectReference: {fileID: 0}
    - target: {fileID: 2861122240014902289, guid: 8325c8bab32767a479ccb1c41c1da3f3,
        type: 3}
      propertyPath: m_LocalEulerAnglesHint.y
      value: 0
      objectReference: {fileID: 0}
    - target: {fileID: 2861122240014902289, guid: 8325c8bab32767a479ccb1c41c1da3f3,
        type: 3}
      propertyPath: m_LocalEulerAnglesHint.z
      value: 0
      objectReference: {fileID: 0}
    m_RemovedComponents: []
  m_SourcePrefab: {fileID: 100100000, guid: 8325c8bab32767a479ccb1c41c1da3f3, type: 3}
--- !u!1 &697202666895794031 stripped
GameObject:
  m_CorrespondingSourceObject: {fileID: 2305766998911766154, guid: 8325c8bab32767a479ccb1c41c1da3f3,
    type: 3}
  m_PrefabInstance: {fileID: 1608714153360560613}
  m_PrefabAsset: {fileID: 0}
--- !u!4 &3596110539219924468 stripped
Transform:
  m_CorrespondingSourceObject: {fileID: 2861122240014902289, guid: 8325c8bab32767a479ccb1c41c1da3f3,
    type: 3}
  m_PrefabInstance: {fileID: 1608714153360560613}
  m_PrefabAsset: {fileID: 0}
