%YAML 1.1
%TAG !u! tag:unity3d.com,2011:
--- !u!114 &11400000
MonoBehaviour:
  m_ObjectHideFlags: 0
  m_CorrespondingSourceObject: {fileID: 0}
  m_PrefabInstance: {fileID: 0}
  m_PrefabAsset: {fileID: 0}
  m_GameObject: {fileID: 0}
  m_Enabled: 1
  m_EditorHideFlags: 0
  m_Script: {fileID: 11500000, guid: 31ec05b9e1f74ba3b912bd35b548f469, type: 3}
  m_Name: Player
  m_EditorClassIdentifier: 
  maxHP: {fileID: 11400000, guid: aa690de9d75fa2746bb3d39c9ff0bba2, type: 2}
  maxRage: {fileID: 11400000, guid: 9acf5a24587866c4781dec78c36f14d2, type: 2}
  controller: {fileID: 11400000, guid: ef4aeac00f31ba14681e52f83cb4986a, type: 2}
  criticalHP: 1
