%YAML 1.1
%TAG !u! tag:unity3d.com,2011:
--- !u!74 &7400000
AnimationClip:
  m_ObjectHideFlags: 0
  m_CorrespondingSourceObject: {fileID: 0}
  m_PrefabInstance: {fileID: 0}
  m_PrefabAsset: {fileID: 0}
  m_Name: Run
  serializedVersion: 6
  m_Legacy: 0
  m_Compressed: 0
  m_UseHighQualityCurve: 1
  m_RotationCurves: []
  m_CompressedRotationCurves: []
  m_EulerCurves: []
  m_PositionCurves:
  - curve:
      serializedVersion: 2
      m_Curve:
      - serializedVersion: 3
        time: 0
        value: {x: -0.08, y: 0.593, z: 0}
        inSlope: {x: 0, y: 0, z: 0}
        outSlope: {x: 0, y: 0, z: 0}
        tangentMode: 0
        weightedMode: 0
        inWeight: {x: 0.33333334, y: 0.33333334, z: 0.33333334}
        outWeight: {x: 0.33333334, y: 0.33333334, z: 0.33333334}
      - serializedVersion: 3
        time: 0.16666667
        value: {x: -0.066, y: 0.589, z: 0}
        inSlope: {x: 0.153, y: -0.048000097, z: 0}
        outSlope: {x: 0.153, y: -0.048000097, z: 0}
        tangentMode: 0
        weightedMode: 0
        inWeight: {x: 0.33333334, y: 0.33333334, z: 0.33333334}
        outWeight: {x: 0.33333334, y: 0.33333334, z: 0.33333334}
      - serializedVersion: 3
        time: 0.33333334
        value: {x: -0.029, y: 0.576, z: 0}
        inSlope: {x: 0.22000001, y: -0.10399986, z: 0}
        outSlope: {x: 0.22000001, y: -0.10399986, z: 0}
        tangentMode: 0
        weightedMode: 0
        inWeight: {x: 0.33333334, y: 0.33333334, z: 0.33333334}
        outWeight: {x: 0.33333334, y: 0.33333334, z: 0.33333334}
      - serializedVersion: 3
        time: 0.41666666
        value: {x: -0.011, y: 0.563, z: 0}
        inSlope: {x: 0, y: 0, z: 0}
        outSlope: {x: 0, y: 0, z: 0}
        tangentMode: 0
        weightedMode: 0
        inWeight: {x: 0.33333334, y: 0.33333334, z: 0.33333334}
        outWeight: {x: 0.33333334, y: 0.33333334, z: 0.33333334}
      - serializedVersion: 3
        time: 0.5
        value: {x: -0.011, y: 0.57, z: 0}
        inSlope: {x: 0, y: 0.14399995, z: 0}
        outSlope: {x: 0, y: 0.14399995, z: 0}
        tangentMode: 0
        weightedMode: 0
        inWeight: {x: 0.33333334, y: 0.33333334, z: 0.33333334}
        outWeight: {x: 0.33333334, y: 0.33333334, z: 0.33333334}
      - serializedVersion: 3
        time: 0.5833333
        value: {x: -0.011, y: 0.587, z: 0}
        inSlope: {x: 0, y: 0.16200005, z: 0}
        outSlope: {x: 0, y: 0.16200005, z: 0}
        tangentMode: 0
        weightedMode: 0
        inWeight: {x: 0.33333334, y: 0.33333334, z: 0.33333334}
        outWeight: {x: 0.33333334, y: 0.33333334, z: 0.33333334}
      - serializedVersion: 3
        time: 0.6666667
        value: {x: -0.011, y: 0.597, z: 0}
        inSlope: {x: 0, y: 0.072000496, z: 0}
        outSlope: {x: 0, y: 0.072000496, z: 0}
        tangentMode: 0
        weightedMode: 0
        inWeight: {x: 0.33333334, y: 0.33333334, z: 0.33333334}
        outWeight: {x: 0.33333334, y: 0.33333334, z: 0.33333334}
      - serializedVersion: 3
        time: 0.75
        value: {x: 0.002, y: 0.6, z: 0}
        inSlope: {x: 0.07200003, y: 0.072000526, z: 0}
        outSlope: {x: 0.07200003, y: 0.072000526, z: 0}
        tangentMode: 0
        weightedMode: 0
        inWeight: {x: 0.33333334, y: 0.33333334, z: 0.33333334}
        outWeight: {x: 0.33333334, y: 0.33333334, z: 0.33333334}
      - serializedVersion: 3
        time: 0.8333333
        value: {x: 0.005, y: 0.617, z: 0}
        inSlope: {x: 0, y: 0.16199969, z: 0}
        outSlope: {x: 0, y: 0.16199969, z: 0}
        tangentMode: 0
        weightedMode: 0
        inWeight: {x: 0.33333334, y: 0.33333334, z: 0.33333334}
        outWeight: {x: 0.33333334, y: 0.33333334, z: 0.33333334}
      - serializedVersion: 3
        time: 0.9166667
        value: {x: 0.005, y: 0.627, z: 0}
        inSlope: {x: 0, y: 0.072000496, z: 0}
        outSlope: {x: 0, y: 0.072000496, z: 0}
        tangentMode: 0
        weightedMode: 0
        inWeight: {x: 0.33333334, y: 0.33333334, z: 0.33333334}
        outWeight: {x: 0.33333334, y: 0.33333334, z: 0.33333334}
      - serializedVersion: 3
        time: 1
        value: {x: 0.018, y: 0.63, z: 0}
        inSlope: {x: 0, y: 0, z: 0}
        outSlope: {x: 0, y: 0, z: 0}
        tangentMode: 0
        weightedMode: 0
        inWeight: {x: 0.33333334, y: 0.33333334, z: 0.33333334}
        outWeight: {x: 0.33333334, y: 0.33333334, z: 0.33333334}
      - serializedVersion: 3
        time: 1.1666666
        value: {x: 0.008, y: 0.63, z: 0}
        inSlope: {x: -0.14799999, y: 0, z: 0}
        outSlope: {x: -0.14799999, y: 0, z: 0}
        tangentMode: 0
        weightedMode: 0
        inWeight: {x: 0.33333334, y: 0.33333334, z: 0.33333334}
        outWeight: {x: 0.33333334, y: 0.33333334, z: 0.33333334}
      - serializedVersion: 3
        time: 1.25
        value: {x: -0.019, y: 0.6, z: 0}
        inSlope: {x: -0.26399988, y: 0, z: 0}
        outSlope: {x: -0.26399988, y: 0, z: 0}
        tangentMode: 0
        weightedMode: 0
        inWeight: {x: 0.33333334, y: 0.33333334, z: 0.33333334}
        outWeight: {x: 0.33333334, y: 0.33333334, z: 0.33333334}
      - serializedVersion: 3
        time: 1.3333334
        value: {x: -0.036, y: 0.6, z: 0}
        inSlope: {x: -0.20400006, y: 0, z: 0}
        outSlope: {x: -0.20400006, y: 0, z: 0}
        tangentMode: 0
        weightedMode: 0
        inWeight: {x: 0.33333334, y: 0.33333334, z: 0.33333334}
        outWeight: {x: 0.33333334, y: 0.33333334, z: 0.33333334}
      - serializedVersion: 3
        time: 1.4166666
        value: {x: -0.053, y: 0.587, z: 0}
        inSlope: {x: -0.048000038, y: -0.13200021, z: 0}
        outSlope: {x: -0.048000038, y: -0.13200021, z: 0}
        tangentMode: 0
        weightedMode: 0
        inWeight: {x: 0.33333334, y: 0.33333334, z: 0.33333334}
        outWeight: {x: 0.33333334, y: 0.33333334, z: 0.33333334}
      - serializedVersion: 3
        time: 1.5833334
        value: {x: -0.056, y: 0.567, z: 0}
        inSlope: {x: 0, y: -0.10800004, z: 0}
        outSlope: {x: 0, y: -0.10800004, z: 0}
        tangentMode: 0
        weightedMode: 0
        inWeight: {x: 0.33333334, y: 0.33333334, z: 0.33333334}
        outWeight: {x: 0.33333334, y: 0.33333334, z: 0.33333334}
      - serializedVersion: 3
        time: 1.6666666
        value: {x: -0.056, y: 0.56, z: 0}
        inSlope: {x: 0, y: 0, z: 0}
        outSlope: {x: 0, y: 0, z: 0}
        tangentMode: 0
        weightedMode: 0
        inWeight: {x: 0.33333334, y: 0.33333334, z: 0.33333334}
        outWeight: {x: 0.33333334, y: 0.33333334, z: 0.33333334}
      - serializedVersion: 3
        time: 1.75
        value: {x: -0.049, y: 0.56, z: 0}
        inSlope: {x: 0.11999996, y: 0, z: 0}
        outSlope: {x: 0.11999996, y: 0, z: 0}
        tangentMode: 0
        weightedMode: 0
        inWeight: {x: 0.33333334, y: 0.33333334, z: 0.33333334}
        outWeight: {x: 0.33333334, y: 0.33333334, z: 0.33333334}
      - serializedVersion: 3
        time: 1.8333334
        value: {x: -0.036, y: 0.56, z: 0}
        inSlope: {x: 0.19800004, y: 0, z: 0}
        outSlope: {x: 0.19800004, y: 0, z: 0}
        tangentMode: 0
        weightedMode: 0
        inWeight: {x: 0.33333334, y: 0.33333334, z: 0.33333334}
        outWeight: {x: 0.33333334, y: 0.33333334, z: 0.33333334}
      - serializedVersion: 3
        time: 1.9166666
        value: {x: -0.016, y: 0.56, z: 0}
        inSlope: {x: 0.19800004, y: 0, z: 0}
        outSlope: {x: 0.19800004, y: 0, z: 0}
        tangentMode: 0
        weightedMode: 0
        inWeight: {x: 0.33333334, y: 0.33333334, z: 0.33333334}
        outWeight: {x: 0.33333334, y: 0.33333334, z: 0.33333334}
      - serializedVersion: 3
        time: 2
        value: {x: -0.003, y: 0.56, z: 0}
        inSlope: {x: 0.15600003, y: 0, z: 0}
        outSlope: {x: 0.15600003, y: 0, z: 0}
        tangentMode: 0
        weightedMode: 0
        inWeight: {x: 0.33333334, y: 0.33333334, z: 0.33333334}
        outWeight: {x: 0.33333334, y: 0.33333334, z: 0.33333334}
      - serializedVersion: 3
        time: 2.0833333
        value: {x: 0.01, y: 0.56, z: 0}
        inSlope: {x: 0, y: 0, z: 0}
        outSlope: {x: 0, y: 0, z: 0}
        tangentMode: 0
        weightedMode: 0
        inWeight: {x: 0.33333334, y: 0.33333334, z: 0.33333334}
        outWeight: {x: 0.33333334, y: 0.33333334, z: 0.33333334}
      - serializedVersion: 3
        time: 2.1666667
        value: {x: 0.01, y: 0.567, z: 0}
        inSlope: {x: 0, y: 0.102000065, z: 0}
        outSlope: {x: 0, y: 0.102000065, z: 0}
        tangentMode: 0
        weightedMode: 0
        inWeight: {x: 0.33333334, y: 0.33333334, z: 0.33333334}
        outWeight: {x: 0.33333334, y: 0.33333334, z: 0.33333334}
      - serializedVersion: 3
        time: 2.25
        value: {x: 0.01, y: 0.577, z: 0}
        inSlope: {x: 0, y: 0.102000214, z: 0}
        outSlope: {x: 0, y: 0.102000214, z: 0}
        tangentMode: 0
        weightedMode: 0
        inWeight: {x: 0.33333334, y: 0.33333334, z: 0.33333334}
        outWeight: {x: 0.33333334, y: 0.33333334, z: 0.33333334}
      - serializedVersion: 3
        time: 2.3333333
        value: {x: 0.01, y: 0.584, z: 0}
        inSlope: {x: 0, y: 0.083999954, z: 0}
        outSlope: {x: 0, y: 0.083999954, z: 0}
        tangentMode: 0
        weightedMode: 0
        inWeight: {x: 0.33333334, y: 0.33333334, z: 0.33333334}
        outWeight: {x: 0.33333334, y: 0.33333334, z: 0.33333334}
      - serializedVersion: 3
        time: 2.4166667
        value: {x: 0.01, y: 0.591, z: 0}
        inSlope: {x: 0, y: 0.14399986, z: 0}
        outSlope: {x: 0, y: 0.14399986, z: 0}
        tangentMode: 0
        weightedMode: 0
        inWeight: {x: 0.33333334, y: 0.33333334, z: 0.33333334}
        outWeight: {x: 0.33333334, y: 0.33333334, z: 0.33333334}
      - serializedVersion: 3
        time: 2.5
        value: {x: 0.01, y: 0.608, z: 0}
        inSlope: {x: 0, y: 0.14400007, z: 0}
        outSlope: {x: 0, y: 0.14400007, z: 0}
        tangentMode: 0
        weightedMode: 0
        inWeight: {x: 0.33333334, y: 0.33333334, z: 0.33333334}
        outWeight: {x: 0.33333334, y: 0.33333334, z: 0.33333334}
      - serializedVersion: 3
        time: 2.5833333
        value: {x: 0.01, y: 0.615, z: 0}
        inSlope: {x: 0, y: 0.083999954, z: 0}
        outSlope: {x: 0, y: 0.083999954, z: 0}
        tangentMode: 0
        weightedMode: 0
        inWeight: {x: 0.33333334, y: 0.33333334, z: 0.33333334}
        outWeight: {x: 0.33333334, y: 0.33333334, z: 0.33333334}
      - serializedVersion: 3
        time: 2.6666667
        value: {x: 0.01, y: 0.622, z: 0}
        inSlope: {x: 0, y: 0.083999954, z: 0}
        outSlope: {x: 0, y: 0.083999954, z: 0}
        tangentMode: 0
        weightedMode: 0
        inWeight: {x: 0.33333334, y: 0.33333334, z: 0.33333334}
        outWeight: {x: 0.33333334, y: 0.33333334, z: 0.33333334}
      - serializedVersion: 3
        time: 2.75
        value: {x: 0.01, y: 0.629, z: 0}
        inSlope: {x: 0, y: 0, z: 0}
        outSlope: {x: 0, y: 0, z: 0}
        tangentMode: 0
        weightedMode: 0
        inWeight: {x: 0.33333334, y: 0.33333334, z: 0.33333334}
        outWeight: {x: 0.33333334, y: 0.33333334, z: 0.33333334}
      - serializedVersion: 3
        time: 2.8333333
        value: {x: 0.01, y: 0.619, z: 0}
        inSlope: {x: 0, y: 0, z: 0}
        outSlope: {x: 0, y: 0, z: 0}
        tangentMode: 0
        weightedMode: 0
        inWeight: {x: 0.33333334, y: 0.33333334, z: 0.33333334}
        outWeight: {x: 0.33333334, y: 0.33333334, z: 0.33333334}
      - serializedVersion: 3
        time: 3
        value: {x: -0.003, y: 0.619, z: 0}
        inSlope: {x: -0.104, y: 0, z: 0}
        outSlope: {x: -0.104, y: 0, z: 0}
        tangentMode: 0
        weightedMode: 0
        inWeight: {x: 0.33333334, y: 0.33333334, z: 0.33333334}
        outWeight: {x: 0.33333334, y: 0.33333334, z: 0.33333334}
      - serializedVersion: 3
        time: 3.0833333
        value: {x: -0.016, y: 0.622, z: 0}
        inSlope: {x: -0.132, y: 0, z: 0}
        outSlope: {x: -0.132, y: 0, z: 0}
        tangentMode: 0
        weightedMode: 0
        inWeight: {x: 0.33333334, y: 0.33333334, z: 0.33333334}
        outWeight: {x: 0.33333334, y: 0.33333334, z: 0.33333334}
      - serializedVersion: 3
        time: 3.25
        value: {x: -0.036, y: 0.622, z: 0}
        inSlope: {x: -0.132, y: 0, z: 0}
        outSlope: {x: -0.132, y: 0, z: 0}
        tangentMode: 0
        weightedMode: 0
        inWeight: {x: 0.33333334, y: 0.33333334, z: 0.33333334}
        outWeight: {x: 0.33333334, y: 0.33333334, z: 0.33333334}
      - serializedVersion: 3
        time: 3.3333333
        value: {x: -0.049, y: 0.622, z: 0}
        inSlope: {x: 0, y: 0, z: 0}
        outSlope: {x: 0, y: 0, z: 0}
        tangentMode: 0
        weightedMode: 0
        inWeight: {x: 0.33333334, y: 0.33333334, z: 0.33333334}
        outWeight: {x: 0.33333334, y: 0.33333334, z: 0.33333334}
      m_PreInfinity: 2
      m_PostInfinity: 2
      m_RotationOrder: 4
    path: Hands
  m_ScaleCurves: []
  m_FloatCurves: []
  m_PPtrCurves:
  - curve:
    - time: 0
      value: {fileID: -7328279966247432374, guid: eae00de3f19babd4b9ec7434c62db3e8,
        type: 3}
    - time: 0.083333336
      value: {fileID: 6900081229774031305, guid: eae00de3f19babd4b9ec7434c62db3e8,
        type: 3}
    - time: 0.16666667
      value: {fileID: -3632526112161736648, guid: eae00de3f19babd4b9ec7434c62db3e8,
        type: 3}
    - time: 0.25
      value: {fileID: 912945148991765078, guid: eae00de3f19babd4b9ec7434c62db3e8,
        type: 3}
    - time: 0.33333334
      value: {fileID: 1090028394045418958, guid: eae00de3f19babd4b9ec7434c62db3e8,
        type: 3}
    - time: 0.41666666
      value: {fileID: 4570751857721538922, guid: eae00de3f19babd4b9ec7434c62db3e8,
        type: 3}
    - time: 0.5
      value: {fileID: -6083922183653068322, guid: eae00de3f19babd4b9ec7434c62db3e8,
        type: 3}
    - time: 0.5833333
      value: {fileID: 4779295969291294749, guid: eae00de3f19babd4b9ec7434c62db3e8,
        type: 3}
    - time: 0.6666667
      value: {fileID: -7949041179410875782, guid: eae00de3f19babd4b9ec7434c62db3e8,
        type: 3}
    - time: 0.75
      value: {fileID: 2067128542255235676, guid: eae00de3f19babd4b9ec7434c62db3e8,
        type: 3}
    - time: 0.8333333
      value: {fileID: 6224215199954638151, guid: eae00de3f19babd4b9ec7434c62db3e8,
        type: 3}
    - time: 0.9166667
      value: {fileID: 6226215544150125268, guid: eae00de3f19babd4b9ec7434c62db3e8,
        type: 3}
    - time: 1
      value: {fileID: 6291738769179923510, guid: eae00de3f19babd4b9ec7434c62db3e8,
        type: 3}
    - time: 1.0833334
      value: {fileID: -1035807458690525920, guid: eae00de3f19babd4b9ec7434c62db3e8,
        type: 3}
    - time: 1.1666666
      value: {fileID: -7785281346498832934, guid: eae00de3f19babd4b9ec7434c62db3e8,
        type: 3}
    - time: 1.25
      value: {fileID: 8555305603819546547, guid: eae00de3f19babd4b9ec7434c62db3e8,
        type: 3}
    - time: 1.3333334
      value: {fileID: 953886171930063788, guid: eae00de3f19babd4b9ec7434c62db3e8,
        type: 3}
    - time: 1.4166666
      value: {fileID: 8148093428193460347, guid: eae00de3f19babd4b9ec7434c62db3e8,
        type: 3}
    - time: 1.5
      value: {fileID: -2593314027772720303, guid: eae00de3f19babd4b9ec7434c62db3e8,
        type: 3}
    - time: 1.5833334
      value: {fileID: -4598270998942817855, guid: eae00de3f19babd4b9ec7434c62db3e8,
        type: 3}
    - time: 1.6666666
      value: {fileID: -5473760510562354155, guid: eae00de3f19babd4b9ec7434c62db3e8,
        type: 3}
    - time: 1.75
      value: {fileID: -2580126436357309950, guid: eae00de3f19babd4b9ec7434c62db3e8,
        type: 3}
    - time: 1.8333334
      value: {fileID: -3710104320929572246, guid: eae00de3f19babd4b9ec7434c62db3e8,
        type: 3}
    - time: 1.9166666
      value: {fileID: -811389326941096528, guid: eae00de3f19babd4b9ec7434c62db3e8,
        type: 3}
    - time: 2
      value: {fileID: 11943485049158864, guid: eae00de3f19babd4b9ec7434c62db3e8, type: 3}
    - time: 2.0833333
      value: {fileID: -7445430772442195848, guid: eae00de3f19babd4b9ec7434c62db3e8,
        type: 3}
    - time: 2.1666667
      value: {fileID: 979367890632506049, guid: eae00de3f19babd4b9ec7434c62db3e8,
        type: 3}
    - time: 2.25
      value: {fileID: -7380085883839015317, guid: eae00de3f19babd4b9ec7434c62db3e8,
        type: 3}
    - time: 2.3333333
      value: {fileID: 2733264586528361947, guid: eae00de3f19babd4b9ec7434c62db3e8,
        type: 3}
    - time: 2.4166667
      value: {fileID: 1671570138821302253, guid: eae00de3f19babd4b9ec7434c62db3e8,
        type: 3}
    - time: 2.5
      value: {fileID: -1708909117165003128, guid: eae00de3f19babd4b9ec7434c62db3e8,
        type: 3}
    - time: 2.5833333
      value: {fileID: 3355919415631835063, guid: eae00de3f19babd4b9ec7434c62db3e8,
        type: 3}
    - time: 2.6666667
      value: {fileID: -1996063385036791395, guid: eae00de3f19babd4b9ec7434c62db3e8,
        type: 3}
    - time: 2.75
      value: {fileID: 6045150953788885916, guid: eae00de3f19babd4b9ec7434c62db3e8,
        type: 3}
    - time: 2.8333333
      value: {fileID: -4034382605780588081, guid: eae00de3f19babd4b9ec7434c62db3e8,
        type: 3}
    - time: 2.9166667
      value: {fileID: 7412285890454700607, guid: eae00de3f19babd4b9ec7434c62db3e8,
        type: 3}
    - time: 3
      value: {fileID: 4401472981407337888, guid: eae00de3f19babd4b9ec7434c62db3e8,
        type: 3}
    - time: 3.0833333
      value: {fileID: 2333327237839748001, guid: eae00de3f19babd4b9ec7434c62db3e8,
        type: 3}
    - time: 3.1666667
      value: {fileID: 3228967447727046751, guid: eae00de3f19babd4b9ec7434c62db3e8,
        type: 3}
    - time: 3.25
      value: {fileID: 7230014630459484641, guid: eae00de3f19babd4b9ec7434c62db3e8,
        type: 3}
    attribute: m_Sprite
    path: 
    classID: 212
    script: {fileID: 0}
  m_SampleRate: 12
  m_WrapMode: 0
  m_Bounds:
    m_Center: {x: 0, y: 0, z: 0}
    m_Extent: {x: 0, y: 0, z: 0}
  m_ClipBindingConstant:
    genericBindings:
    - serializedVersion: 2
      path: 2817465596
      attribute: 1
      script: {fileID: 0}
      typeID: 4
      customType: 0
      isPPtrCurve: 0
    - serializedVersion: 2
      path: 0
      attribute: 0
      script: {fileID: 0}
      typeID: 212
      customType: 23
      isPPtrCurve: 1
    pptrCurveMapping:
    - {fileID: -7328279966247432374, guid: eae00de3f19babd4b9ec7434c62db3e8, type: 3}
    - {fileID: 6900081229774031305, guid: eae00de3f19babd4b9ec7434c62db3e8, type: 3}
    - {fileID: -3632526112161736648, guid: eae00de3f19babd4b9ec7434c62db3e8, type: 3}
    - {fileID: 912945148991765078, guid: eae00de3f19babd4b9ec7434c62db3e8, type: 3}
    - {fileID: 1090028394045418958, guid: eae00de3f19babd4b9ec7434c62db3e8, type: 3}
    - {fileID: 4570751857721538922, guid: eae00de3f19babd4b9ec7434c62db3e8, type: 3}
    - {fileID: -6083922183653068322, guid: eae00de3f19babd4b9ec7434c62db3e8, type: 3}
    - {fileID: 4779295969291294749, guid: eae00de3f19babd4b9ec7434c62db3e8, type: 3}
    - {fileID: -7949041179410875782, guid: eae00de3f19babd4b9ec7434c62db3e8, type: 3}
    - {fileID: 2067128542255235676, guid: eae00de3f19babd4b9ec7434c62db3e8, type: 3}
    - {fileID: 6224215199954638151, guid: eae00de3f19babd4b9ec7434c62db3e8, type: 3}
    - {fileID: 6226215544150125268, guid: eae00de3f19babd4b9ec7434c62db3e8, type: 3}
    - {fileID: 6291738769179923510, guid: eae00de3f19babd4b9ec7434c62db3e8, type: 3}
    - {fileID: -1035807458690525920, guid: eae00de3f19babd4b9ec7434c62db3e8, type: 3}
    - {fileID: -7785281346498832934, guid: eae00de3f19babd4b9ec7434c62db3e8, type: 3}
    - {fileID: 8555305603819546547, guid: eae00de3f19babd4b9ec7434c62db3e8, type: 3}
    - {fileID: 953886171930063788, guid: eae00de3f19babd4b9ec7434c62db3e8, type: 3}
    - {fileID: 8148093428193460347, guid: eae00de3f19babd4b9ec7434c62db3e8, type: 3}
    - {fileID: -2593314027772720303, guid: eae00de3f19babd4b9ec7434c62db3e8, type: 3}
    - {fileID: -4598270998942817855, guid: eae00de3f19babd4b9ec7434c62db3e8, type: 3}
    - {fileID: -5473760510562354155, guid: eae00de3f19babd4b9ec7434c62db3e8, type: 3}
    - {fileID: -2580126436357309950, guid: eae00de3f19babd4b9ec7434c62db3e8, type: 3}
    - {fileID: -3710104320929572246, guid: eae00de3f19babd4b9ec7434c62db3e8, type: 3}
    - {fileID: -811389326941096528, guid: eae00de3f19babd4b9ec7434c62db3e8, type: 3}
    - {fileID: 11943485049158864, guid: eae00de3f19babd4b9ec7434c62db3e8, type: 3}
    - {fileID: -7445430772442195848, guid: eae00de3f19babd4b9ec7434c62db3e8, type: 3}
    - {fileID: 979367890632506049, guid: eae00de3f19babd4b9ec7434c62db3e8, type: 3}
    - {fileID: -7380085883839015317, guid: eae00de3f19babd4b9ec7434c62db3e8, type: 3}
    - {fileID: 2733264586528361947, guid: eae00de3f19babd4b9ec7434c62db3e8, type: 3}
    - {fileID: 1671570138821302253, guid: eae00de3f19babd4b9ec7434c62db3e8, type: 3}
    - {fileID: -1708909117165003128, guid: eae00de3f19babd4b9ec7434c62db3e8, type: 3}
    - {fileID: 3355919415631835063, guid: eae00de3f19babd4b9ec7434c62db3e8, type: 3}
    - {fileID: -1996063385036791395, guid: eae00de3f19babd4b9ec7434c62db3e8, type: 3}
    - {fileID: 6045150953788885916, guid: eae00de3f19babd4b9ec7434c62db3e8, type: 3}
    - {fileID: -4034382605780588081, guid: eae00de3f19babd4b9ec7434c62db3e8, type: 3}
    - {fileID: 7412285890454700607, guid: eae00de3f19babd4b9ec7434c62db3e8, type: 3}
    - {fileID: 4401472981407337888, guid: eae00de3f19babd4b9ec7434c62db3e8, type: 3}
    - {fileID: 2333327237839748001, guid: eae00de3f19babd4b9ec7434c62db3e8, type: 3}
    - {fileID: 3228967447727046751, guid: eae00de3f19babd4b9ec7434c62db3e8, type: 3}
    - {fileID: 7230014630459484641, guid: eae00de3f19babd4b9ec7434c62db3e8, type: 3}
  m_AnimationClipSettings:
    serializedVersion: 2
    m_AdditiveReferencePoseClip: {fileID: 0}
    m_AdditiveReferencePoseTime: 0
    m_StartTime: 0
    m_StopTime: 3.3333333
    m_OrientationOffsetY: 0
    m_Level: 0
    m_CycleOffset: 0
    m_HasAdditiveReferencePose: 0
    m_LoopTime: 1
    m_LoopBlend: 0
    m_LoopBlendOrientation: 0
    m_LoopBlendPositionY: 0
    m_LoopBlendPositionXZ: 0
    m_KeepOriginalOrientation: 0
    m_KeepOriginalPositionY: 1
    m_KeepOriginalPositionXZ: 0
    m_HeightFromFeet: 0
    m_Mirror: 0
  m_EditorCurves:
  - curve:
      serializedVersion: 2
      m_Curve:
      - serializedVersion: 3
        time: 0
        value: -0.08
        inSlope: 0
        outSlope: 0
        tangentMode: 136
        weightedMode: 0
        inWeight: 0.33333334
        outWeight: 0.33333334
      - serializedVersion: 3
        time: 0.16666667
        value: -0.066
        inSlope: 0.153
        outSlope: 0.153
        tangentMode: 136
        weightedMode: 0
        inWeight: 0.33333334
        outWeight: 0.33333334
      - serializedVersion: 3
        time: 0.33333334
        value: -0.029
        inSlope: 0.22000001
        outSlope: 0.22000001
        tangentMode: 136
        weightedMode: 0
        inWeight: 0.33333334
        outWeight: 0.33333334
      - serializedVersion: 3
        time: 0.41666666
        value: -0.011
        inSlope: 0
        outSlope: 0
        tangentMode: 136
        weightedMode: 0
        inWeight: 0.33333334
        outWeight: 0.33333334
      - serializedVersion: 3
        time: 0.5
        value: -0.011
        inSlope: 0
        outSlope: 0
        tangentMode: 136
        weightedMode: 0
        inWeight: 0.33333334
        outWeight: 0.33333334
      - serializedVersion: 3
        time: 0.5833333
        value: -0.011
        inSlope: 0
        outSlope: 0
        tangentMode: 136
        weightedMode: 0
        inWeight: 0.33333334
        outWeight: 0.33333334
      - serializedVersion: 3
        time: 0.6666667
        value: -0.011
        inSlope: 0
        outSlope: 0
        tangentMode: 136
        weightedMode: 0
        inWeight: 0.33333334
        outWeight: 0.33333334
      - serializedVersion: 3
        time: 0.75
        value: 0.002
        inSlope: 0.07200003
        outSlope: 0.07200003
        tangentMode: 136
        weightedMode: 0
        inWeight: 0.33333334
        outWeight: 0.33333334
      - serializedVersion: 3
        time: 0.8333333
        value: 0.005
        inSlope: 0
        outSlope: 0
        tangentMode: 136
        weightedMode: 0
        inWeight: 0.33333334
        outWeight: 0.33333334
      - serializedVersion: 3
        time: 0.9166667
        value: 0.005
        inSlope: 0
        outSlope: 0
        tangentMode: 136
        weightedMode: 0
        inWeight: 0.33333334
        outWeight: 0.33333334
      - serializedVersion: 3
        time: 1
        value: 0.018
        inSlope: 0
        outSlope: 0
        tangentMode: 136
        weightedMode: 0
        inWeight: 0.33333334
        outWeight: 0.33333334
      - serializedVersion: 3
        time: 1.1666666
        value: 0.008
        inSlope: -0.14799999
        outSlope: -0.14799999
        tangentMode: 136
        weightedMode: 0
        inWeight: 0.33333334
        outWeight: 0.33333334
      - serializedVersion: 3
        time: 1.25
        value: -0.019
        inSlope: -0.26399988
        outSlope: -0.26399988
        tangentMode: 136
        weightedMode: 0
        inWeight: 0.33333334
        outWeight: 0.33333334
      - serializedVersion: 3
        time: 1.3333334
        value: -0.036
        inSlope: -0.20400006
        outSlope: -0.20400006
        tangentMode: 136
        weightedMode: 0
        inWeight: 0.33333334
        outWeight: 0.33333334
      - serializedVersion: 3
        time: 1.4166666
        value: -0.053
        inSlope: -0.048000038
        outSlope: -0.048000038
        tangentMode: 136
        weightedMode: 0
        inWeight: 0.33333334
        outWeight: 0.33333334
      - serializedVersion: 3
        time: 1.5833334
        value: -0.056
        inSlope: 0
        outSlope: 0
        tangentMode: 136
        weightedMode: 0
        inWeight: 0.33333334
        outWeight: 0.33333334
      - serializedVersion: 3
        time: 1.6666666
        value: -0.056
        inSlope: 0
        outSlope: 0
        tangentMode: 136
        weightedMode: 0
        inWeight: 0.33333334
        outWeight: 0.33333334
      - serializedVersion: 3
        time: 1.75
        value: -0.049
        inSlope: 0.11999996
        outSlope: 0.11999996
        tangentMode: 136
        weightedMode: 0
        inWeight: 0.33333334
        outWeight: 0.33333334
      - serializedVersion: 3
        time: 1.8333334
        value: -0.036
        inSlope: 0.19800004
        outSlope: 0.19800004
        tangentMode: 136
        weightedMode: 0
        inWeight: 0.33333334
        outWeight: 0.33333334
      - serializedVersion: 3
        time: 1.9166666
        value: -0.016
        inSlope: 0.19800004
        outSlope: 0.19800004
        tangentMode: 136
        weightedMode: 0
        inWeight: 0.33333334
        outWeight: 0.33333334
      - serializedVersion: 3
        time: 2
        value: -0.003
        inSlope: 0.15600003
        outSlope: 0.15600003
        tangentMode: 136
        weightedMode: 0
        inWeight: 0.33333334
        outWeight: 0.33333334
      - serializedVersion: 3
        time: 2.0833333
        value: 0.01
        inSlope: 0
        outSlope: 0
        tangentMode: 136
        weightedMode: 0
        inWeight: 0.33333334
        outWeight: 0.33333334
      - serializedVersion: 3
        time: 2.1666667
        value: 0.01
        inSlope: 0
        outSlope: 0
        tangentMode: 136
        weightedMode: 0
        inWeight: 0.33333334
        outWeight: 0.33333334
      - serializedVersion: 3
        time: 2.25
        value: 0.01
        inSlope: 0
        outSlope: 0
        tangentMode: 136
        weightedMode: 0
        inWeight: 0.33333334
        outWeight: 0.33333334
      - serializedVersion: 3
        time: 2.3333333
        value: 0.01
        inSlope: 0
        outSlope: 0
        tangentMode: 136
        weightedMode: 0
        inWeight: 0.33333334
        outWeight: 0.33333334
      - serializedVersion: 3
        time: 2.4166667
        value: 0.01
        inSlope: 0
        outSlope: 0
        tangentMode: 136
        weightedMode: 0
        inWeight: 0.33333334
        outWeight: 0.33333334
      - serializedVersion: 3
        time: 2.5
        value: 0.01
        inSlope: 0
        outSlope: 0
        tangentMode: 136
        weightedMode: 0
        inWeight: 0.33333334
        outWeight: 0.33333334
      - serializedVersion: 3
        time: 2.5833333
        value: 0.01
        inSlope: 0
        outSlope: 0
        tangentMode: 136
        weightedMode: 0
        inWeight: 0.33333334
        outWeight: 0.33333334
      - serializedVersion: 3
        time: 2.6666667
        value: 0.01
        inSlope: 0
        outSlope: 0
        tangentMode: 136
        weightedMode: 0
        inWeight: 0.33333334
        outWeight: 0.33333334
      - serializedVersion: 3
        time: 2.75
        value: 0.01
        inSlope: 0
        outSlope: 0
        tangentMode: 136
        weightedMode: 0
        inWeight: 0.33333334
        outWeight: 0.33333334
      - serializedVersion: 3
        time: 2.8333333
        value: 0.01
        inSlope: 0
        outSlope: 0
        tangentMode: 136
        weightedMode: 0
        inWeight: 0.33333334
        outWeight: 0.33333334
      - serializedVersion: 3
        time: 3
        value: -0.003
        inSlope: -0.104
        outSlope: -0.104
        tangentMode: 136
        weightedMode: 0
        inWeight: 0.33333334
        outWeight: 0.33333334
      - serializedVersion: 3
        time: 3.0833333
        value: -0.016
        inSlope: -0.132
        outSlope: -0.132
        tangentMode: 136
        weightedMode: 0
        inWeight: 0.33333334
        outWeight: 0.33333334
      - serializedVersion: 3
        time: 3.25
        value: -0.036
        inSlope: -0.132
        outSlope: -0.132
        tangentMode: 136
        weightedMode: 0
        inWeight: 0.33333334
        outWeight: 0.33333334
      - serializedVersion: 3
        time: 3.3333333
        value: -0.049
        inSlope: 0
        outSlope: 0
        tangentMode: 136
        weightedMode: 0
        inWeight: 0.33333334
        outWeight: 0.33333334
      m_PreInfinity: 2
      m_PostInfinity: 2
      m_RotationOrder: 4
    attribute: m_LocalPosition.x
    path: Hands
    classID: 4
    script: {fileID: 0}
  - curve:
      serializedVersion: 2
      m_Curve:
      - serializedVersion: 3
        time: 0
        value: 0.593
        inSlope: 0
        outSlope: 0
        tangentMode: 136
        weightedMode: 0
        inWeight: 0.33333334
        outWeight: 0.33333334
      - serializedVersion: 3
        time: 0.16666667
        value: 0.589
        inSlope: -0.048000097
        outSlope: -0.048000097
        tangentMode: 136
        weightedMode: 0
        inWeight: 0.33333334
        outWeight: 0.33333334
      - serializedVersion: 3
        time: 0.33333334
        value: 0.576
        inSlope: -0.10399986
        outSlope: -0.10399986
        tangentMode: 136
        weightedMode: 0
        inWeight: 0.33333334
        outWeight: 0.33333334
      - serializedVersion: 3
        time: 0.41666666
        value: 0.563
        inSlope: 0
        outSlope: 0
        tangentMode: 136
        weightedMode: 0
        inWeight: 0.33333334
        outWeight: 0.33333334
      - serializedVersion: 3
        time: 0.5
        value: 0.57
        inSlope: 0.14399995
        outSlope: 0.14399995
        tangentMode: 136
        weightedMode: 0
        inWeight: 0.33333334
        outWeight: 0.33333334
      - serializedVersion: 3
        time: 0.5833333
        value: 0.587
        inSlope: 0.16200005
        outSlope: 0.16200005
        tangentMode: 136
        weightedMode: 0
        inWeight: 0.33333334
        outWeight: 0.33333334
      - serializedVersion: 3
        time: 0.6666667
        value: 0.597
        inSlope: 0.072000496
        outSlope: 0.072000496
        tangentMode: 136
        weightedMode: 0
        inWeight: 0.33333334
        outWeight: 0.33333334
      - serializedVersion: 3
        time: 0.75
        value: 0.6
        inSlope: 0.072000526
        outSlope: 0.072000526
        tangentMode: 136
        weightedMode: 0
        inWeight: 0.33333334
        outWeight: 0.33333334
      - serializedVersion: 3
        time: 0.8333333
        value: 0.617
        inSlope: 0.16199969
        outSlope: 0.16199969
        tangentMode: 136
        weightedMode: 0
        inWeight: 0.33333334
        outWeight: 0.33333334
      - serializedVersion: 3
        time: 0.9166667
        value: 0.627
        inSlope: 0.072000496
        outSlope: 0.072000496
        tangentMode: 136
        weightedMode: 0
        inWeight: 0.33333334
        outWeight: 0.33333334
      - serializedVersion: 3
        time: 1
        value: 0.63
        inSlope: 0
        outSlope: 0
        tangentMode: 136
        weightedMode: 0
        inWeight: 0.33333334
        outWeight: 0.33333334
      - serializedVersion: 3
        time: 1.1666666
        value: 0.63
        inSlope: 0
        outSlope: 0
        tangentMode: 136
        weightedMode: 0
        inWeight: 0.33333334
        outWeight: 0.33333334
      - serializedVersion: 3
        time: 1.25
        value: 0.6
        inSlope: 0
        outSlope: 0
        tangentMode: 136
        weightedMode: 0
        inWeight: 0.33333334
        outWeight: 0.33333334
      - serializedVersion: 3
        time: 1.3333334
        value: 0.6
        inSlope: 0
        outSlope: 0
        tangentMode: 136
        weightedMode: 0
        inWeight: 0.33333334
        outWeight: 0.33333334
      - serializedVersion: 3
        time: 1.4166666
        value: 0.587
        inSlope: -0.13200021
        outSlope: -0.13200021
        tangentMode: 136
        weightedMode: 0
        inWeight: 0.33333334
        outWeight: 0.33333334
      - serializedVersion: 3
        time: 1.5833334
        value: 0.567
        inSlope: -0.10800004
        outSlope: -0.10800004
        tangentMode: 136
        weightedMode: 0
        inWeight: 0.33333334
        outWeight: 0.33333334
      - serializedVersion: 3
        time: 1.6666666
        value: 0.56
        inSlope: 0
        outSlope: 0
        tangentMode: 136
        weightedMode: 0
        inWeight: 0.33333334
        outWeight: 0.33333334
      - serializedVersion: 3
        time: 1.75
        value: 0.56
        inSlope: 0
        outSlope: 0
        tangentMode: 136
        weightedMode: 0
        inWeight: 0.33333334
        outWeight: 0.33333334
      - serializedVersion: 3
        time: 1.8333334
        value: 0.56
        inSlope: 0
        outSlope: 0
        tangentMode: 136
        weightedMode: 0
        inWeight: 0.33333334
        outWeight: 0.33333334
      - serializedVersion: 3
        time: 1.9166666
        value: 0.56
        inSlope: 0
        outSlope: 0
        tangentMode: 136
        weightedMode: 0
        inWeight: 0.33333334
        outWeight: 0.33333334
      - serializedVersion: 3
        time: 2
        value: 0.56
        inSlope: 0
        outSlope: 0
        tangentMode: 136
        weightedMode: 0
        inWeight: 0.33333334
        outWeight: 0.33333334
      - serializedVersion: 3
        time: 2.0833333
        value: 0.56
        inSlope: 0
        outSlope: 0
        tangentMode: 136
        weightedMode: 0
        inWeight: 0.33333334
        outWeight: 0.33333334
      - serializedVersion: 3
        time: 2.1666667
        value: 0.567
        inSlope: 0.102000065
        outSlope: 0.102000065
        tangentMode: 136
        weightedMode: 0
        inWeight: 0.33333334
        outWeight: 0.33333334
      - serializedVersion: 3
        time: 2.25
        value: 0.577
        inSlope: 0.102000214
        outSlope: 0.102000214
        tangentMode: 136
        weightedMode: 0
        inWeight: 0.33333334
        outWeight: 0.33333334
      - serializedVersion: 3
        time: 2.3333333
        value: 0.584
        inSlope: 0.083999954
        outSlope: 0.083999954
        tangentMode: 136
        weightedMode: 0
        inWeight: 0.33333334
        outWeight: 0.33333334
      - serializedVersion: 3
        time: 2.4166667
        value: 0.591
        inSlope: 0.14399986
        outSlope: 0.14399986
        tangentMode: 136
        weightedMode: 0
        inWeight: 0.33333334
        outWeight: 0.33333334
      - serializedVersion: 3
        time: 2.5
        value: 0.608
        inSlope: 0.14400007
        outSlope: 0.14400007
        tangentMode: 136
        weightedMode: 0
        inWeight: 0.33333334
        outWeight: 0.33333334
      - serializedVersion: 3
        time: 2.5833333
        value: 0.615
        inSlope: 0.083999954
        outSlope: 0.083999954
        tangentMode: 136
        weightedMode: 0
        inWeight: 0.33333334
        outWeight: 0.33333334
      - serializedVersion: 3
        time: 2.6666667
        value: 0.622
        inSlope: 0.083999954
        outSlope: 0.083999954
        tangentMode: 136
        weightedMode: 0
        inWeight: 0.33333334
        outWeight: 0.33333334
      - serializedVersion: 3
        time: 2.75
        value: 0.629
        inSlope: 0
        outSlope: 0
        tangentMode: 136
        weightedMode: 0
        inWeight: 0.33333334
        outWeight: 0.33333334
      - serializedVersion: 3
        time: 2.8333333
        value: 0.619
        inSlope: 0
        outSlope: 0
        tangentMode: 136
        weightedMode: 0
        inWeight: 0.33333334
        outWeight: 0.33333334
      - serializedVersion: 3
        time: 3
        value: 0.619
        inSlope: 0
        outSlope: 0
        tangentMode: 136
        weightedMode: 0
        inWeight: 0.33333334
        outWeight: 0.33333334
      - serializedVersion: 3
        time: 3.0833333
        value: 0.622
        inSlope: 0
        outSlope: 0
        tangentMode: 136
        weightedMode: 0
        inWeight: 0.33333334
        outWeight: 0.33333334
      - serializedVersion: 3
        time: 3.25
        value: 0.622
        inSlope: 0
        outSlope: 0
        tangentMode: 136
        weightedMode: 0
        inWeight: 0.33333334
        outWeight: 0.33333334
      - serializedVersion: 3
        time: 3.3333333
        value: 0.622
        inSlope: 0
        outSlope: 0
        tangentMode: 136
        weightedMode: 0
        inWeight: 0.33333334
        outWeight: 0.33333334
      m_PreInfinity: 2
      m_PostInfinity: 2
      m_RotationOrder: 4
    attribute: m_LocalPosition.y
    path: Hands
    classID: 4
    script: {fileID: 0}
  - curve:
      serializedVersion: 2
      m_Curve:
      - serializedVersion: 3
        time: 0
        value: 0
        inSlope: 0
        outSlope: 0
        tangentMode: 136
        weightedMode: 0
        inWeight: 0.33333334
        outWeight: 0.33333334
      - serializedVersion: 3
        time: 0.16666667
        value: 0
        inSlope: 0
        outSlope: 0
        tangentMode: 136
        weightedMode: 0
        inWeight: 0.33333334
        outWeight: 0.33333334
      - serializedVersion: 3
        time: 0.33333334
        value: 0
        inSlope: 0
        outSlope: 0
        tangentMode: 136
        weightedMode: 0
        inWeight: 0.33333334
        outWeight: 0.33333334
      - serializedVersion: 3
        time: 0.41666666
        value: 0
        inSlope: 0
        outSlope: 0
        tangentMode: 136
        weightedMode: 0
        inWeight: 0.33333334
        outWeight: 0.33333334
      - serializedVersion: 3
        time: 0.5
        value: 0
        inSlope: 0
        outSlope: 0
        tangentMode: 136
        weightedMode: 0
        inWeight: 0.33333334
        outWeight: 0.33333334
      - serializedVersion: 3
        time: 0.5833333
        value: 0
        inSlope: 0
        outSlope: 0
        tangentMode: 136
        weightedMode: 0
        inWeight: 0.33333334
        outWeight: 0.33333334
      - serializedVersion: 3
        time: 0.6666667
        value: 0
        inSlope: 0
        outSlope: 0
        tangentMode: 136
        weightedMode: 0
        inWeight: 0.33333334
        outWeight: 0.33333334
      - serializedVersion: 3
        time: 0.75
        value: 0
        inSlope: 0
        outSlope: 0
        tangentMode: 136
        weightedMode: 0
        inWeight: 0.33333334
        outWeight: 0.33333334
      - serializedVersion: 3
        time: 0.8333333
        value: 0
        inSlope: 0
        outSlope: 0
        tangentMode: 136
        weightedMode: 0
        inWeight: 0.33333334
        outWeight: 0.33333334
      - serializedVersion: 3
        time: 0.9166667
        value: 0
        inSlope: 0
        outSlope: 0
        tangentMode: 136
        weightedMode: 0
        inWeight: 0.33333334
        outWeight: 0.33333334
      - serializedVersion: 3
        time: 1
        value: 0
        inSlope: 0
        outSlope: 0
        tangentMode: 136
        weightedMode: 0
        inWeight: 0.33333334
        outWeight: 0.33333334
      - serializedVersion: 3
        time: 1.1666666
        value: 0
        inSlope: 0
        outSlope: 0
        tangentMode: 136
        weightedMode: 0
        inWeight: 0.33333334
        outWeight: 0.33333334
      - serializedVersion: 3
        time: 1.25
        value: 0
        inSlope: 0
        outSlope: 0
        tangentMode: 136
        weightedMode: 0
        inWeight: 0.33333334
        outWeight: 0.33333334
      - serializedVersion: 3
        time: 1.3333334
        value: 0
        inSlope: 0
        outSlope: 0
        tangentMode: 136
        weightedMode: 0
        inWeight: 0.33333334
        outWeight: 0.33333334
      - serializedVersion: 3
        time: 1.4166666
        value: 0
        inSlope: 0
        outSlope: 0
        tangentMode: 136
        weightedMode: 0
        inWeight: 0.33333334
        outWeight: 0.33333334
      - serializedVersion: 3
        time: 1.5833334
        value: 0
        inSlope: 0
        outSlope: 0
        tangentMode: 136
        weightedMode: 0
        inWeight: 0.33333334
        outWeight: 0.33333334
      - serializedVersion: 3
        time: 1.6666666
        value: 0
        inSlope: 0
        outSlope: 0
        tangentMode: 136
        weightedMode: 0
        inWeight: 0.33333334
        outWeight: 0.33333334
      - serializedVersion: 3
        time: 1.75
        value: 0
        inSlope: 0
        outSlope: 0
        tangentMode: 136
        weightedMode: 0
        inWeight: 0.33333334
        outWeight: 0.33333334
      - serializedVersion: 3
        time: 1.8333334
        value: 0
        inSlope: 0
        outSlope: 0
        tangentMode: 136
        weightedMode: 0
        inWeight: 0.33333334
        outWeight: 0.33333334
      - serializedVersion: 3
        time: 1.9166666
        value: 0
        inSlope: 0
        outSlope: 0
        tangentMode: 136
        weightedMode: 0
        inWeight: 0.33333334
        outWeight: 0.33333334
      - serializedVersion: 3
        time: 2
        value: 0
        inSlope: 0
        outSlope: 0
        tangentMode: 136
        weightedMode: 0
        inWeight: 0.33333334
        outWeight: 0.33333334
      - serializedVersion: 3
        time: 2.0833333
        value: 0
        inSlope: 0
        outSlope: 0
        tangentMode: 136
        weightedMode: 0
        inWeight: 0.33333334
        outWeight: 0.33333334
      - serializedVersion: 3
        time: 2.1666667
        value: 0
        inSlope: 0
        outSlope: 0
        tangentMode: 136
        weightedMode: 0
        inWeight: 0.33333334
        outWeight: 0.33333334
      - serializedVersion: 3
        time: 2.25
        value: 0
        inSlope: 0
        outSlope: 0
        tangentMode: 136
        weightedMode: 0
        inWeight: 0.33333334
        outWeight: 0.33333334
      - serializedVersion: 3
        time: 2.3333333
        value: 0
        inSlope: 0
        outSlope: 0
        tangentMode: 136
        weightedMode: 0
        inWeight: 0.33333334
        outWeight: 0.33333334
      - serializedVersion: 3
        time: 2.4166667
        value: 0
        inSlope: 0
        outSlope: 0
        tangentMode: 136
        weightedMode: 0
        inWeight: 0.33333334
        outWeight: 0.33333334
      - serializedVersion: 3
        time: 2.5
        value: 0
        inSlope: 0
        outSlope: 0
        tangentMode: 136
        weightedMode: 0
        inWeight: 0.33333334
        outWeight: 0.33333334
      - serializedVersion: 3
        time: 2.5833333
        value: 0
        inSlope: 0
        outSlope: 0
        tangentMode: 136
        weightedMode: 0
        inWeight: 0.33333334
        outWeight: 0.33333334
      - serializedVersion: 3
        time: 2.6666667
        value: 0
        inSlope: 0
        outSlope: 0
        tangentMode: 136
        weightedMode: 0
        inWeight: 0.33333334
        outWeight: 0.33333334
      - serializedVersion: 3
        time: 2.75
        value: 0
        inSlope: 0
        outSlope: 0
        tangentMode: 136
        weightedMode: 0
        inWeight: 0.33333334
        outWeight: 0.33333334
      - serializedVersion: 3
        time: 2.8333333
        value: 0
        inSlope: 0
        outSlope: 0
        tangentMode: 136
        weightedMode: 0
        inWeight: 0.33333334
        outWeight: 0.33333334
      - serializedVersion: 3
        time: 3
        value: 0
        inSlope: 0
        outSlope: 0
        tangentMode: 136
        weightedMode: 0
        inWeight: 0.33333334
        outWeight: 0.33333334
      - serializedVersion: 3
        time: 3.0833333
        value: 0
        inSlope: 0
        outSlope: 0
        tangentMode: 136
        weightedMode: 0
        inWeight: 0.33333334
        outWeight: 0.33333334
      - serializedVersion: 3
        time: 3.25
        value: 0
        inSlope: 0
        outSlope: 0
        tangentMode: 136
        weightedMode: 0
        inWeight: 0.33333334
        outWeight: 0.33333334
      - serializedVersion: 3
        time: 3.3333333
        value: 0
        inSlope: 0
        outSlope: 0
        tangentMode: 136
        weightedMode: 0
        inWeight: 0.33333334
        outWeight: 0.33333334
      m_PreInfinity: 2
      m_PostInfinity: 2
      m_RotationOrder: 4
    attribute: m_LocalPosition.z
    path: Hands
    classID: 4
    script: {fileID: 0}
  m_EulerEditorCurves: []
  m_HasGenericRootTransform: 0
  m_HasMotionFloatCurves: 0
  m_Events: []
